A0A009IHW8	3.2.2.6
A0A023VXA2	3.2.1.4
A0A031WDE4	4.2.1.172
A0A059WLZ7	1.14.15.23
A0A059ZV61	2.4.1.13
A0A069CUU9	3.4.24.69
A0A073CEA3	4.1.1.100
A0A075BSX9	1.5.3.5
A0A075HNX4	1.1.3.20
A0A077LPS9	5.3.1.7
A0A089QRB9	2.3.1.252
A0A095AMW7	4.1.1.101
A0A096ZEC9	3.3.2.14
A0A096ZED0	3.3.2.14
A0A0A1GKA2	1.3.99.37
A0A0A1GNF2	4.2.1.161
A0A0A1H8I4	5.3.3.7
A0A0B0QJN8	2.7.7.108
A0A0B5RNJ4	1.14.13.148
A0A0C5URS1	4.1.1.38
A0A0C6DRW4	1.14.14.21
A0A0D3MJQ5	2.1.1.137
A0A0D4BS77	2.1.1.47
A0A0D4BSN8	1.1.1.397
A0A0D4BSP3	2.1.1.328
A0A0D8BWP6	2.3.1.31
A0A0E3JT70	1.2.7.11
A0A0E3KBH3	1.2.7.11
A0A0E3NEE1	1.8.98.1
A0A0E3NFS5	1.8.98.1
A0A0E4AFG7	1.14.13.182
A0A0E4AFH6	1.14.13.182
A0A0F5HNH9	1.16.3.1
A0A0F6P9C0	2.1.1.334
A0A0H2UNG0	3.2.1.41
A0A0H2USC0	2.3.2.27
A0A0H2USG1	2.3.2.27
A0A0H2V630	2.4.1.369
A0A0H2V660	3.1.1.109
A0A0H2V760	3.1.1.108
A0A0H2V871	3.1.1.107
A0A0H2V8B5	3.2.2.6
A0A0H2VA12	4.1.1.104
A0A0H2VA68	1.1.1.411
A0A0H2VKG8	1.17.99.6
A0A0H2WWB5	4.2.1.113
A0A0H2WWV6	2.4.1.70
A0A0H2WZ38	3.5.1.2
A0A0H2WZY4	2.7.1.15
A0A0H2Z7X0	2.7.7.65
A0A0H2ZF83	6.2.1.61
A0A0H2ZF87	2.1.1.200
A0A0H2ZGB9	6.2.1.69
A0A0H2ZGJ4	6.2.1.69
A0A0H2ZM56	1.1.1.1
A0A0H2ZNH9	2.7.13.3
A0A0H3AFM6	2.7.7.65
A0A0H3B1Q8	3.5.1.44
A0A0H3C7E9	2.3.1.50
A0A0H3GEM5	3.1.2.28
A0A0H3GGY3	3.1.4.59
A0A0H3JPC6	2.4.1.355
A0A0H3JR16	6.3.1.20
A0A0H3JRU9	6.4.1.1
A0A0H3JT80	1.5.1.52
A0A0H3JU78	5.1.1.24
A0A0H3JUG6	1.17.99.6
A0A0H3JUU7	6.3.5.13
A0A0H3JVA1	2.4.1.355
A0A0H3JX98	6.3.1.20
A0A0H3JXA8	2.5.1.152
A0A0H3KB22	4.3.99.3
A0A0H3KNC4	3.1.1.120
A0A0H3KNE7	1.1.1.435
A0A0H3KP73	2.7.1.217
A0A0H3KZS3	1.1.99.39
A0A0H3L116	1.14.11.75
A0A0H3L1B8	1.14.11.74
A0A0H3LKL4	1.14.13.114
A0A0H3LQK8	1.1.1.408
A0A0H3LX82	2.7.1.219
A0A0H3M5A8	2.3.1.269
A0A0H3MBJ2	2.7.11.1
A0A0H3PEK7	2.1.1.226
A0A0H5BB10	5.5.1.12
A0A0H5BN57	4.2.3.193
A0A0I9QGZ2	2.2.1.1
A0A0I9QGZ7	2.3.1.46
A0A0I9RJ56	2.3.1.46
A0A0J5WTU0	3.2.2.5
A0A0J5ZXG5	4.6.1.26
A0A0K1TPY7	4.1.99.23
A0A0K1TQ05	4.1.99.23
A0A0K2H9D8	1.3.98.5
A0A0K2JKU1	1.14.13.249
A0A0K2JL70	1.14.13.248
A0A0K2JL82	4.3.99.5
A0A0K2JL91	2.1.1.380
A0A0K2JLU1	6.7.1.1
A0A0K8P6T7	3.1.1.101
A0A0K8P8E7	3.1.1.102
A0A0L8M630	1.4.1.28
A0A0N9HP11	1.8.1.20
A0A0P9JFY5	5.3.1.7
A0A0S1X9S7	1.1.1.1
A0A0S2UQQ5	3.2.1.156
A0A0S3QTC6	1.1.1.37
A0A0S3QTD0	2.3.3.16
A0A0U1RGY0	5.1.3.14
A0A0U4EBH5	3.2.1.4
A0A100YXA1	4.1.1.115
A0A120HUS7	2.3.1.30
A0A140N5J7	3.1.3.45
A0A140NCB4	3.5.1.128
A0A140NDS5	3.5.1.3
A0A150XSC5	2.7.7.65
A0A151EH88	3.2.2.6
A0A172J1S0	1.14.13.218
A0A172U6X0	5.1.3.31
A0A191T6Q6	3.2.1.96
A0A1B1PF34	1.4.3.11
A0A1D3PCI9	2.3.1.46
A0A1D3PCJ5	2.3.1.46
A0A1D3PCK2	2.3.1.31
A0A1D3PDD4	2.3.1.31
A0A1E7MYN1	1.14.19.49
A0A1G9FQX8	2.5.1.63
A0A1H7TQR5	2.7.1.8
A0A1I4KS07	3.2.2.6
A0A1J1EM40	2.1.5.1
A0A1L5BTC1	3.8.1.5
A0A1T4LJ54	4.6.1.26
A0A1V0ELS9	1.13.11.86
A0A1V0HUX5	4.6.1.26
A0A1W7HCY1	1.16.1.10
A0A1X9WEP1	2.1.1.351
A0A256XLS3	5.3.1.15
A0A291P0C1	1.8.3.4
A0A291SJC7	4.2.3.157
A0A2C9EVE6	3.7.1.24
A0A2I9	4.1.1.29
A0A2K9M484	3.7.1.24
A0A2P1BT06	6.2.1.34
A0A2P6MHT4	2.7.1.184
A0A2P6MHU9	5.3.1.31
A0A2P6MHY1	4.1.2.57
A0A2T5Y4G4	3.2.2.5
A0A318FL05	4.2.1.177
A0A381HBN1	2.7.7.65
A0A384LP51	2.1.1.342
A0A391NGM7	1.11.1.5
A0A391NKV7	1.11.1.5
A0A3B6UEU3	1.14.11.78
A0A3D9VCI6	4.2.2.1
A0A3Q0NBH7	3.5.1.104
A0A3R0A696	3.2.1.55
A0A3S5YBC7	3.2.1.123
A0A401ETL2	3.2.1.213
A0A411EW25	2.1.1.381
A0A411MR89	1.14.13.250
A0A481NV25	4.1.1.25
A0A482PU20	6.3.2.3
A0A4R2TZQ0	4.6.1.26
A0A4V8H040	1.13.11.90
A0A4V8H042	1.14.11.72
A0A5N1I561	1.1.3.15
A0A5P3XKQ1	3.4.24.69
A0A6C7EEG6	2.4.1.329
A0A7R7ZDZ6	1.11.1.6
A0A7T1FRB0	1.10.3.2
A0A7U9P668	3.2.1.54
A0A7W3N5X5	2.2.1.14
A0A7W3RCJ3	1.2.1.97
A0A7W3RDA3	5.3.1.31
A0A8A1G1R1	3.2.1.4
A0A8F4N283	3.1.4.46
A0A8G1A3Q5	3.2.1.14
A0JC76	4.1.99.20
A0KJB0	2.4.2.31
A0KLG5	5.1.1.10
A0KYQ5	3.5.1.25
A0KYQ6	2.7.1.59
A0KYQ7	3.5.99.6
A0MTQ2	3.4.11.25
A0NLY7	3.5.2.20
A0NXQ7	5.1.1.8
A0NXQ8	4.2.1.171
A0NXQ9	4.2.1.77
A0P8X0	3.2.1.1
A0PM50	1.4.3.26
A0PM51	3.4.14.14
A0QNZ7	3.1.1.23
A0QPF9	2.7.7.24
A0QPN1	5.6.2.2
A0QPN2	5.6.2.2
A0QQ53	2.8.2.37
A0QRI8	1.3.99.38
A0QSB8	1.3.98.7
A0QSB9	1.4.3.26
A0QSC0	3.4.14.14
A0QSK5	5.1.3.13
A0QTU8	1.14.13.227
A0QU81	5.4.99.5
A0QVQ8	1.4.1.1
A0QWG5	2.3.1.265
A0QWG6	2.4.1.345
A0QXE4	2.7.1.210
A0QXE5	5.3.1.34
A0QYC2	1.1.1.403
A0QYE8	1.7.1.7
A0QYS8	2.1.3.3
A0QZ12	2.4.1.83
A0QZ42	6.3.1.19
A0QZ49	3.5.1.119
A0R043	2.4.1.346
A0R0W2	1.8.4.10
A0R109	2.3.1.273
A0R2E2	2.4.1.342
A0R2E6	2.4.1.266
A0R2W4	2.5.1.68
A0R3N5	5.4.99.5
A0R3Y2	7.2.2.10
A0R4Q6	1.14.15.28
A0R4Y3	1.14.15.29
A0R567	3.2.2.31
A0R5M8	2.1.1.44
A0R5M9	3.5.1.118
A0R5N0	1.14.99.50
A0R5Z2	2.4.1.287
A0R607	1.1.98.3
A0R610	1.1.1.333
A0R756	5.3.1.33
A0R757	5.3.1.34
A0R758	2.7.1.209
A0ZZH6	2.4.1.7
A1A278	3.2.1.78
A1A3D2	2.3.1.31
A1A3T0	3.2.1.23
A1ADJ6	2.3.1.136
A1AY86	3.2.2.6
A1B195	4.2.1.77
A1B196	1.5.1.49
A1B198	5.1.1.22
A1B4L2	1.2.1.3
A1B8Z1	4.1.3.41
A1B8Z3	2.6.1.35
A1B9Z3	2.6.1.77
A1BBM5	5.1.1.8
A1E280	1.14.19.59
A1IHE6	1.14.13.226
A1IHE7	3.1.1.114
A1IIX2	1.14.14.27
A1IIX3	1.13.11.37
A1IIX4	1.3.1.32
A1IIX5	1.5.1.37
A1RS58	1.1.1.37
A1SGT4	3.5.2.1
A1TC01	3.1.3.85
A1TFU9	1.14.13.113
A1YPR2	4.2.3.152
A1YPR3	5.1.3.33
A2AXG5	2.5.1.123
A2BJU2	2.5.1.23
A2BJX6	6.5.1.7
A2RI77	7.4.2.9
A2RI78	7.4.2.9
A2RIB7	1.6.3.4
A2RIE6	2.7.1.204
A2RJT9	1.3.98.1
A2SQW3	2.3.1.31
A3DD66	3.2.1.39
A3DH97	3.2.1.8
A3DP49	6.5.1.7
A3E7Z6	5.3.1.15
A3KEZ1	1.4.5.1
A3KIM2	1.14.99.53
A3KKC4	1.14.99.54
A3M4A9	5.1.1.8
A3MTK6	3.1.12.1
A3MTW6	2.7.4.16
A3MUY9	1.4.1.2
A3MUZ0	2.7.1.2
A3MWK6	1.4.1.4
A3PPJ8	5.1.1.8
A3QFI1	5.1.1.8
A3RXB7	1.1.3.29
A3SK19	4.4.1.3
A3SLM3	1.14.13.148
A3SQG3	4.4.1.25
A3SR25	2.3.3.15
A3VVZ4	1.14.13.148
A4D0H5	1.14.19.58
A4ECA9	1.1.1.201
A4F2N8	4.3.1.16
A4IT51	1.14.14.8
A4IU28	1.14.14.28
A4VFY4	1.14.11.55
A4VGK4	1.1.99.39
A4X3Q0	2.5.1.94
A4X4S2	3.13.2.3
A4X981	6.3.2.53
A4X982	5.1.1.23
A4XES9	1.13.11.82
A4XF23	4.2.1.8
A4YI15	1.1.1.383
A5F5X0	7.2.1.1
A5F5X1	7.2.1.1
A5F5Y3	2.7.1.180
A5F5Y4	7.2.1.1
A5F5Y5	7.2.1.1
A5F5Y6	7.2.1.1
A5F5Y7	7.2.1.1
A5FJK8	2.5.1.41
A5HV13	1.13.11.88
A5JTM5	3.8.1.7
A5N6T4	2.3.3.3
A5N8M0	2.3.1.31
A5TY84	2.7.11.1
A5U029	2.1.1.79
A5U1J9	2.3.1.286
A5U3A3	2.7.11.1
A5U3A6	2.7.11.1
A5U493	3.5.2.6
A5U4N0	2.7.1.20
A5U866	2.1.1.79
A5U8X0	5.6.2.1
A5UK38	6.3.4.16
A5VZY6	5.1.1.8
A6KXB3	2.2.1.13
A6KXB4	2.2.1.13
A6LC32	2.3.1.31
A6LGF6	3.2.1.214
A6Q234	3.5.4.40
A6QGB8	2.1.1.192
A6T7D6	3.5.2.3
A6T923	1.14.13.113
A6T9C8	3.5.1.126
A6UNL1	2.3.1.31
A6VHZ5	2.5.1.41
A6VKK5	2.7.1.217
A6VKQ3	2.2.1.13
A6VKQ4	2.2.1.13
A6WE36	3.6.4.12
A6WFI5	3.1.1.74
A6WLE9	2.3.1.46
A6WW16	5.1.1.8
A6WXX7	5.1.1.8
A6X3G3	3.1.1.115
A7AZH2	1.1.1.393
A7B1V0	4.1.1.105
A7B3K3	1.1.1.392
A7BFV6	2.3.1.50
A7BFV7	2.3.1.50
A7BFV8	2.3.1.50
A7H590	3.1.3.3
A7HD43	2.7.13.3
A7IJG7	3.7.1.28
A7IPX7	1.18.1.3
A7IQH5	1.1.1.269
A7NH01	4.2.3.98
A8CF74	1.14.19.60
A8CF75	1.14.19.9
A8D7K2	4.2.3.152
A8FNH9	4.1.1.96
A8GG78	2.4.2.31
A8GG79	3.2.2.19
A8H392	4.2.1.77
A8IKD2	3.5.2.15
A8KRL3	3.5.99.2
A8M783	3.13.2.3
A8R3S4	1.1.2.8
A8RG82	5.1.3.30
A8ZTR0	1.1.1.382
A9A1Y1	6.2.1.56
A9AKH1	1.5.1.49
A9ALD3	1.5.1.49
A9AQW9	5.1.1.8
A9AWD5	5.5.1.29
A9AWD6	3.1.7.12
A9AWD7	2.1.1.347
A9BEU2	2.4.1.268
A9BHI9	2.4.1.266
A9BHJ0	2.4.1.270
A9CEQ7	5.4.1.4
A9CEQ8	5.5.1.27
A9CES3	1.1.1.407
A9CES4	1.1.1.16
A9CES5	2.7.1.101
A9CES6	5.1.3.40
A9CEY6	1.1.1.432
A9CEY7	1.14.14.181
A9CH00	4.2.1.171
A9CH28	5.1.3.30
A9CH39	4.1.99.13
A9CIM3	2.7.8.24
A9CJC9	4.1.99.3
A9CKB4	5.1.1.8
A9FZ87	4.2.3.164
A9GK58	4.2.3.175
A9I0E6	2.3.1.46
A9JQL9	2.5.1.96
A9KT32	2.4.1.279
A9WKM8	2.3.1.31
B0B0T7	4.2.3.152
B0CN26	6.2.1.66
B0CN28	1.11.2.5
B0FLN1	2.3.1.184
B0FXI0	1.14.13.235
B0FYK7	2.3.1.233
B0K2C2	2.4.1.340
B0K2C3	2.4.1.339
B0KTG8	3.2.2.19
B0NAQ4	1.3.1.114
B0R2Z3	2.5.1.41
B0R3Y0	4.1.2.13
B0R753	5.5.1.19
B0TBI8	1.1.1.409
B0TBI9	2.7.1.220
B0UET5	3.5.2.15
B0VB44	5.1.1.8
B0VH76	2.6.1.111
B0VHH0	2.3.1.247
B1A7S3	1.5.3.22
B1G889	2.7.1.231
B1G894	1.1.1.420
B1HZY7	1.1.3.15
B1KJ76	4.2.1.77
B1M1V6	2.7.1.217
B1MCE2	2.1.1.374
B1MFK1	1.14.13.182
B1MK49	3.7.1.4
B1MM05	1.14.13.231
B1N1A2	1.14.13.163
B1VN93	2.3.1.277
B1VN94	1.3.1.113
B1WZQ6	2.1.1.334
B2CML6	1.14.14.21
B2DEU7	2.1.2.7
B2DEU8	2.1.2.7
B2DEV1	2.1.2.7
B2FI28	6.1.3.1
B2FI29	1.1.1.412
B2FSW8	4.2.2.26
B2GCE0	1.3.99.33
B2HEM2	7.2.2.12
B2HIL4	6.2.1.51
B2HIN2	6.2.1.59
B2HKM2	4.3.2.11
B2IXH4	1.4.1.19
B2IZD3	3.6.5.5
B2J528	4.3.1.24
B2J6X9	4.2.3.154
B2JQY2	3.5.5.1
B2KZE7	3.4.13.23
B2RLK2	3.4.22.47
B2UP57	3.2.1.52
B2UPR7	3.2.1.52
B2UQG6	3.2.1.52
B3D6W2	5.1.1.8
B3E278	2.3.1.31
B3EWG9	2.4.2.30
B3EWI1	1.11.1.17
B3EY95	2.8.3.18
B3PDE5	3.1.1.72
B3PEE6	2.4.1.161
B3PF24	3.2.1.78
B3PIB0	3.1.1.72
B3TLD6	3.2.1.140
B3TMR8	1.1.1.384
B3VA58	2.4.1.153
B3VA59	2.4.1.335
B4E9I9	3.5.1.9
B4EHE6	5.1.1.8
B4EVF5	2.3.1.286
B4RUL1	2.3.1.46
B4U6I9	1.1.1.383
B4XMC6	4.1.1.20
B4XY98	2.1.1.302
B4XY99	1.14.13.189
B4XYB8	2.3.1.236
B4YST4	2.8.3.25
B5GMG2	4.2.3.108
B5GRC8	4.2.3.192
B5GW45	4.2.3.98
B5H7H3	4.2.3.182
B5HDJ6	4.2.3.181
B5IEU6	4.1.2.4
B5UAT8	6.3.2.48
B5XK69	4.2.1.53
B5XRB0	1.3.1.6
B6A876	3.2.1.14
B6A879	3.2.1.14
B6BQB2	1.14.13.148
B6E2X2	4.1.3.24
B6V6V5	1.14.15.30
B6V6V6	1.14.15.30
B6YTP6	3.1.3.11
B6YTR4	6.5.1.6
B7GPC7	3.2.1.96
B7JBP8	1.8.5.4
B7MBE2	3.2.2.9
B7MMH5	2.7.1.100
B7MMH6	5.3.1.23
B7MMH7	4.1.2.62
B7RR92	1.1.3.15
B7X2B6	2.3.1.46
B8EIZ7	1.14.13.148
B8G5D6	1.6.99.1
B8GHE0	2.3.1.31
B8GZ33	2.1.1.72
B8GZM2	2.7.7.65
B8I944	5.1.3.30
B8J0R1	4.4.1.38
B8J364	4.1.1.111
B8J3A4	4.1.1.111
B8YB53	2.7.7.6
B8YB55	2.7.7.6
B9E972	4.2.1.53
B9J3S4	3.4.24.3
B9J8G8	5.1.1.8
B9J8R3	5.1.3.6
B9J8S0	3.5.4.11
B9JHU6	5.1.1.8
B9JK73	4.1.1.121
B9JK75	1.1.1.421
B9JK80	1.1.1.420
B9JN19	5.3.1.34
B9JN20	5.3.1.33
B9JQV3	5.1.1.8
B9K4G4	4.2.1.77
B9K712	1.21.1.1
B9K7M6	2.4.1.20
B9L9I6	2.3.1.31
B9LTF0	2.3.1.31
B9R4E3	5.1.1.8
B9U6P5	3.13.1.4
C0CMQ7	1.1.1.421
C0CMQ8	1.1.1.81
C0HJE2	3.2.1.3
C0HJE3	3.2.1.11
C0HJE4	3.2.1.1
C0HJL9	3.1.1.20
C0HLL7	2.5.1.18
C0HLL8	1.11.1.9
C0HLT5	3.2.1.14
C0JRZ9	2.1.1.106
C0KTJ6	1.1.1.406
C0LTL9	2.7.7.97
C0LTM1	1.14.13.223
C0MAL8	3.2.2.5
C0QRQ2	2.4.1.266
C0ZUQ6	4.1.2.4
C1FW05	1.4.1.26
C1FW06	2.3.1.263
C1FW07	2.3.1.263
C1FW08	5.1.1.12
C1I202	1.6.5.6
C1KKR1	5.1.3.31
C3JXY0	2.7.2.4
C3MIE1	1.8.4.10
C3VA26	1.13.11.88
C4B644	1.14.15.15
C4PWA1	2.5.1.121
C4RJF7	6.3.2.53
C4RJF8	5.1.1.23
C4RPA1	1.14.13.187
C4TP09	1.14.13.33
C4XNQ9	2.3.1.31
C5C7X8	5.6.2.2
C5C7X9	5.6.2.2
C5CBV8	2.4.1.54
C5G6D7	4.2.2.21
C5MRT8	1.1.99.37
C6BAU4	3.5.2.15
C6C2Z3	2.6.1.1
C6WFL3	4.2.3.155
C7BKP9	3.5.1.44
C7C422	3.5.2.6
C7C8V4	2.3.1.46
C7DLJ6	4.2.1.53
C7P8V7	6.3.4.24
C7PEQ0	2.5.1.41
C7PLV2	4.2.3.62
C7Q942	1.14.11.41
C8NA81	2.3.1.46
C8WGQ3	1.1.1.391
C8WJW0	1.1.1.391
C8WJZ5	3.1.4.57
C8WLE3	1.3.99.33
C8WMP0	1.1.1.52
C8WR67	1.1.1.86
C9K1X5	4.2.3.146
C9K1X6	1.14.99.61
C9K1X7	1.14.99.62
D0B707	2.7.8.24
D0C9N6	1.14.13.239
D0C9N8	1.14.13.239
D0CY60	4.4.1.3
D0E8I4	1.14.11.46
D0E8I5	1.13.11.78
D0L1T6	2.3.1.46
D0LZ73	1.16.3.1
D0VWQ1	1.7.3.3
D0WGK0	1.1.1.86
D0ZLR2	4.1.2.14
D0ZLR3	4.3.1.29
D0ZVG2	2.3.2.27
D1A7C3	1.8.3.7
D2AV87	5.1.1.8
D2B747	4.2.3.170
D2CJS7	6.5.1.7
D2PPM7	3.2.1.204
D2PPM8	3.2.1.205
D2QN44	5.1.1.8
D2QPE6	3.1.3.15
D2QS27	2.5.1.41
D2RJU7	1.1.1.399
D2Z026	5.1.1.19
D2Z030	6.3.3.5
D3DFS4	4.1.1.111
D3DJG4	2.8.5.2
D3DJG5	2.8.5.2
D3E3E4	2.3.1.31
D3JV03	1.3.8.12
D3KVM5	1.15.1.1
D3KVM6	1.6.5.7
D3P9D1	2.3.1.31
D3QY10	4.2.1.168
D3RNN8	1.8.5.6
D3RNP0	2.3.1.46
D3V9Q5	1.14.20.10
D3WYV9	2.4.1.9
D3WYW0	2.4.1.10
D4FZ53	2.3.1.57
D4GP29	1.1.1.424
D4GP33	1.1.1.376
D4GP38	7.5.2.13
D4GP39	7.5.2.13
D4GP41	1.2.1.26
D4GR05	2.7.1.58
D4GS48	1.1.1.388
D4GSE6	2.7.1.178
D4GST8	1.1.1.343
D4GT97	3.6.1.1
D4GTL3	4.1.3.1
D4GTS4	3.4.19.15
D4GU92	1.1.1.42
D4GW50	3.1.26.5
D4GXZ3	4.1.1.99
D4GY94	2.3.1.31
D4GYE6	2.7.1.56
D4GYH3	2.4.1.356
D4GYH4	2.4.99.21
D4GZM5	2.7.7.85
D4H6M0	2.4.1.13
D4I2N1	1.14.20.9
D4MUV9	1.1.99.6
D4P095	3.1.4.53
D4QF25	1.14.11.49
D4Z2G1	3.8.1.5
D4ZX34	3.1.21.4
D4ZX35	2.1.1.37
D5ANS3	1.3.7.7
D5AQD5	2.3.1.n4
D5BCE4	2.5.1.41
D5E0A1	3.5.1.47
D5E9R7	2.3.1.31
D5EXZ4	3.1.1.73
D5KX81	2.7.8.24
D5KXJ0	2.5.1.32
D5SJ87	5.5.1.30
D5SL78	4.2.3.26
D5SQS4	5.1.1.8
D5SXM0	2.3.1.222
D5TM67	2.7.7.85
D6A5I3	1.4.3.11
D6XZ22	2.4.1.332
D7A0Y0	1.5.1.49
D7A0Y1	4.2.1.77
D7A0Y2	4.2.1.171
D7A0Y3	5.1.1.8
D7A6E5	2.8.5.2
D7BAR0	2.4.1.352
D7E9E0	2.3.1.31
D7GDZ9	2.4.1.345
D7P5V0	1.14.13.215
D7P5W0	1.5.1.42
D7UER1	1.14.14.155
D7Y2H2	2.7.7.85
D9IA43	7.1.1.9
D9J041	1.16.1.1
D9PU00	1.3.4.1
D9PUX5	1.3.4.1
D9PVI7	1.1.1.299
D9PVP5	1.5.1.40
D9PXZ6	2.8.4.1
D9TQ02	5.1.2.1
D9TT09	2.4.1.329
D9TT10	2.7.1.11
D9XD61	4.2.3.169
D9XDR8	4.2.3.162
D9XF45	1.1.1.309
D9XF47	6.2.1.67
D9XF49	6.2.1.67
E0SRA9	1.1.1.383
E0U4V7	2.4.1.53
E0UR96	2.3.1.31
E1V4J5	1.4.1.2
E1V7W0	3.5.1.125
E1V7W1	3.5.4.44
E1V8I0	1.4.1.13
E1V8I1	1.4.1.13
E1V8J1	1.1.1.40
E1V931	1.4.1.1
E1VA04	1.14.11.55
E1VB09	2.7.1.90
E1WKT5	2.1.3.11
E2GIN1	1.14.11.45
E2JA31	6.3.2.47
E2JA32	6.3.2.46
E2NPN0	2.3.1.31
E3E7F9	4.2.2.2
E3FKM2	4.2.3.152
E3H7X6	2.3.1.31
E3HDJ8	2.3.1.31
E3PRJ4	5.4.3.3
E3PRJ5	5.4.3.3
E3PTZ4	5.1.1.4
E3PY95	5.4.3.5
E3PY96	5.4.3.5
E3PY97	2.3.1.263
E3PY98	2.3.1.263
E3PY99	1.4.1.12
E3UUE6	6.2.1.42
E3VWI2	1.2.1.12
E3YBA4	1.15.1.1
E4MYY0	4.2.3.187
E4PMA5	2.4.1.359
E4QP00	1.1.3.47
E5ASS2	2.7.7.106
E5KK10	2.7.13.3
E5Y378	4.4.1.38
E5Y379	1.2.1.10
E5Y7I4	4.4.1.41
E5Y945	2.6.1.77
E5Y946	1.1.1.433
E6Z0R3	2.7.7.108
E7FHF1	4.1.2.59
E7FHP1	6.2.1.13
E7FHU4	1.12.1.3
E7FI44	1.12.1.3
E7FI45	6.2.1.13
E8LIC0	2.3.1.31
E8MGH8	3.2.1.185
E8PLM2	3.1.11.3
E8W6C7	4.2.3.166
E8WYN5	4.1.2.10
E9P162	1.14.19.59
E9RFS9	1.14.13.227
E9RFT1	1.14.13.227
F0KFI5	1.14.13.239
F0KFI7	1.14.13.239
F0M433	1.1.1.425
F1CMX0	1.14.15.30
F1CMX8	1.14.15.30
F1CMY8	1.14.15.30
F1CYZ5	2.8.3.23
F1SVE0	1.5.98.3
F1SVE1	1.5.98.3
F1SVE4	1.5.98.3
F1SVH7	1.5.98.3
F1SVH9	1.5.98.3
F1SVK0	1.5.98.3
F1SVL1	1.5.98.3
F1SVL2	1.5.98.3
F2JVT6	5.3.1.7
F2R776	1.14.13.211
F2RB80	1.14.99.65
F2RB83	1.14.99.67
F2WP51	3.1.6.21
F2Z5Z6	3.6.4.12
F4CUJ4	3.5.2.15
F4G5A4	1.1.3.15
F4KU78	1.21.1.1
F4QV02	2.3.1.46
F5BFC8	1.14.16.7
F5L9G2	1.4.1.20
F5RH07	6.3.4.12
F6BCS4	2.4.2.59
F7J5X9	3.7.1.24
F7XKY8	2.3.1.31
F8C4X8	5.1.3.6
F8DIF2	1.3.99.33
F8G0M4	1.14.13.163
F8G0P1	1.4.2.3
F8G0P2	1.4.2.2
F8GV06	1.1.1.421
F8GVD3	3.13.1.4
F8J3D9	6.2.1.60
F8KAY7	3.1.6.19
F8WJP6	2.1.2.14
F9UMS6	4.1.1.101
F9UNH3	1.3.99.33
F9USS9	5.1.2.1
F9UST0	2.5.1.143
F9UST1	4.99.1.12
F9UST4	4.4.1.37
F9VPA4	2.6.1.16
F9VPG1	4.1.2.55
G0FUS0	2.1.1.315
G0GBS4	2.4.1.352
G0HQ31	2.8.3.26
G0J5N4	2.3.1.31
G0WXL9	3.13.1.5
G1K3N4	3.2.1.78
G1UB44	3.2.1.22
G2IQS7	2.1.1.341
G2NFJ9	3.2.1.58
G2P5T1	4.2.3.157
G3ISL7	2.3.1.46
G3XCV2	6.2.1.69
G3XCZ8	1.14.99.58
G3XD12	1.4.99.5
G3XD61	5.1.3.23
G3XD67	1.4.99.5
G3XD94	1.1.1.136
G3XDA1	2.4.2.31
G4FEF4	3.2.1.22
G4RES5	2.3.1.46
G4SW86	1.3.1.70
G4T4R7	3.2.1.22
G4V4T4	2.3.1.246
G4V4T5	4.2.1.17
G4V4T6	1.13.11.80
G4V4T7	4.2.1.17
G4WJD3	1.1.1.356
G4WJD4	4.2.1.168
G5EBD7	1.1.1.343
G7CFI3	1.14.99.50
G8SD34	3.2.2.6
G8T6H8	2.1.1.6
G9EZR6	1.1.1.110
G9FRD6	1.1.1.201
H0SH23	3.5.2.15
H1AAP2	3.13.1.7
H1ZZA4	1.14.13.222
H1ZZB0	1.1.1.394
H2IFE7	1.2.1.92
H2IFX0	5.5.1.25
H2K887	4.2.3.152
H2K888	2.7.7.91
H2K893	2.4.1.338
H2VFR7	2.5.1.103
H3ZR39	5.1.1.2
H6LBB0	1.1.1.436
H6LBB1	1.1.1.436
H6LBS1	1.1.1.436
H6LC27	7.2.1.2
H6LC28	7.2.1.2
H6LC29	7.2.1.2
H6LC30	7.2.1.2
H6LC31	7.2.1.2
H6LC32	7.2.1.2
H6LGM6	1.3.1.108
H6LGM7	1.3.1.108
H6LGM8	1.3.1.108
H8F0D6	4.2.1.79
H8L374	2.3.1.46
H8ZPX1	1.4.2.3
I0DFJ0	4.1.1.28
I0J1I6	5.1.1.10
I2N045	4.2.3.159
I3BN39	2.3.1.46
I3DZK9	1.11.2.4
I3R176	6.3.1.2
I3R584	6.3.1.11
I3R634	1.7.7.2
I3R637	1.7.7.1
I3R7F1	6.4.1.3
I3R7F2	6.4.1.3
I3R9M8	1.7.5.1
I3R9M9	1.7.5.1
I3VE74	5.4.99.64
I3VE77	5.4.99.64
I3X057	1.8.4.10
I3ZRF1	2.7.7.108
I6LNY0	5.1.1.10
I6TCK3	4.1.1.111
I6UF18	4.1.1.111
I6UH61	4.1.1.111
I6WZK7	1.16.3.1
I6XD65	3.5.1.19
I6XD69	2.3.1.295
I6XEI5	3.2.1.17
I6XFS7	2.1.1.171
I6XHI4	2.3.1.16
I6XHJ3	2.3.1.16
I6XU97	3.1.1.1
I6Y0R5	6.3.2.12
I6Y2J4	3.1.1.3
I6Y4D2	3.5.1.28
I6Y4U9	1.11.1.7
I6Y778	1.1.1.212
I6YBZ8	4.2.1.119
I6YEE1	3.1.4.14
I6YFP0	6.3.4.15
I7A3T6	2.4.1.13
I7FA35	1.14.13.227
I7FJX8	2.7.1.8
J0MXJ0	5.3.1.37
J0MXK0	2.2.1.15
J1H0Z7	2.2.1.15
J1H1H5	5.3.1.31
J1H1J3	1.1.1.433
J7GQ11	4.1.1.25
J7SHB8	1.1.1.110
J7SZ64	4.1.1.105
J7TF92	1.3.8.15
J8G6Z1	3.2.2.5
K0J4Q8	1.11.1.26
K0K750	4.2.3.57
K2QXP6	2.3.1.31
K4ICC9	2.3.1.31
K4L7X3	3.13.1.4
K4LVZ1	1.1.1.382
K4QXN8	1.14.13.248
K4R6W4	4.3.99.5
K4REZ6	2.6.1.114
K4RFM2	2.1.1.343
K4ZRC1	3.4.24.89
K5B7F3	2.1.1.365
K5BDL0	3.2.1.208
K5BJH8	2.3.1.273
K7WKL8	2.4.2.31
K9UV87	1.2.1.67
L0D9B6	2.1.1.344
L0DSL2	1.7.2.2
L0E1U3	2.3.1.46
L0TC47	3.1.1.1
L7N5A6	3.6.1.11
L7N653	3.5.1.28
L7N6A5	2.7.7.13
L7N6B0	3.2.1.52
L8B068	3.2.1.1
L8EYU3	1.3.98.4
M0GNC6	2.3.1.31
M0HG00	2.3.1.31
M0L7V9	2.5.1.150
M1GRN3	5.1.1.21
M1VMF7	1.1.5.14
M4GGR9	5.1.1.5
M4YMP0	2.3.1.31
M5AW86	4.2.3.188
M9SGV8	2.3.1.31
N0DKX5	1.17.98.2
N6Z5E2	5.4.4.8
O05207	5.6.2.2
O05208	5.6.2.2
O05213	3.5.1.28
O05265	1.1.1.371
O05306	3.2.2.n1
O05393	2.5.1.134
O05442	3.2.2.5
O05505	2.7.1.205
O05512	3.2.1.78
O05527	3.1.1.75
O05542	1.1.5.5
O05572	2.5.1.1
O05701	2.5.1.15
O05883	2.1.1.334
O05927	1.8.4.10
O06334	4.1.1.112
O06543	5.1.99.4
O06644	2.8.3.16
O06728	3.1.7.6
O06769	3.5.1.23
O06923	7.2.4.1
O06994	3.2.1.10
O07006	4.1.1.102
O07012	3.2.1.23
O07013	3.2.1.89
O07244	3.1.4.46
O07293	3.5.2.6
O07427	3.1.1.23
O07431	2.1.1.6
O07608	6.3.1.20
O07732	4.6.1.1
O07801	2.3.1.284
O08349	1.1.1.37
O08374	2.6.1.45
O08430	3.1.3.2
O08467	6.3.1.2
O08498	3.5.2.6
O24676	1.14.12.26
O24677	1.14.12.26
O24767	2.7.1.73
O24926	1.17.99.6
O24972	2.7.13.3
O25001	3.5.2.6
O25026	2.7.13.3
O25103	3.5.2.6
O25130	2.6.1.92
O25151	1.11.1.24
O25153	2.7.13.3
O25503	2.5.1.16
O25613	3.5.4.16
O25830	2.5.1.15
O26010	2.7.7.3
O26061	2.1.1.148
O26158	2.6.1.83
O26325	6.5.1.9
O26345	3.1.26.5
O26350	1.5.1.40
O26652	2.5.1.41
O26708	6.1.1.15
O27197	5.2.1.8
O27232	2.8.4.1
O27233	2.8.4.1
O27236	2.8.4.1
O27726	2.7.8.39
O27784	1.5.98.2
O27818	5.1.3.13
O28007	3.2.2.27
O28046	3.6.1.66
O28126	2.7.7.72
O28294	1.1.1.383
O28341	6.2.1.13
O28534	2.7.7.67
O28599	1.1.1.261
O29057	6.2.1.13
O29313	6.3.1.2
O29370	1.5.1.40
O29428	1.16.1.10
O29537	4.99.1.3
O29777	7.2.2.8
O29844	2.5.1.41
O29853	1.1.99.6
O29867	2.4.99.21
O29868	2.3.1.169
O29876	4.2.99.18
O29904	1.6.5.2
O29918	2.4.99.21
O30478	4.1.3.45
O30511	2.4.1.152
O30640	2.1.1.247
O31041	4.2.1.28
O31042	4.2.1.28
O31156	3.11.1.1
O31201	3.5.1.68
O31269	2.8.1.7
O31440	1.11.2.4
O31465	3.5.1.2
O31502	2.7.1.107
O31504	2.1.1.72
O31526	4.2.2.23
O31527	4.2.2.24
O31611	2.7.6.5
O31616	1.4.3.19
O31618	2.8.1.10
O31663	2.7.1.100
O31664	3.5.1.111
O31665	2.6.1.117
O31675	6.3.4.20
O31677	4.3.99.3
O31688	7.2.2.20
O31718	2.7.7.6
O31775	3.1.4.16
O31778	2.8.4.3
O31822	2.7.7.9
O31945	2.7.7.6
O32125	3.1.3.5
O32148	2.6.1.112
O32164	2.8.1.7
O32169	7.4.2.11
O32223	1.1.1.371
O32224	1.7.1.17
O32472	4.2.1.119
O32727	2.7.11.1
O32765	1.1.1.27
O33125	1.16.3.1
O33174	2.4.2.8
O33336	2.7.8.7
O33407	3.1.1.1
O33434	2.8.5.2
O33469	6.2.1.30
O33818	1.1.7.1
O33819	1.1.7.1
O33820	1.1.7.1
O33855	6.2.1.2
O33939	2.4.1.328
O34138	1.5.1.38
O34206	2.7.13.3
O34303	3.1.21.4
O34349	3.1.3.27
O34350	2.3.1.80
O34389	1.1.1.38
O34425	1.2.1.59
O34453	1.14.14.47
O34499	3.1.1.31
O34508	5.1.1.20
O34514	4.2.1.113
O34522	2.1.1.33
O34539	2.4.1.384
O34614	2.1.1.61
O34640	2.7.1.230
O34645	3.2.1.22
O34707	4.2.3.130
O34714	4.1.1.2
O34767	4.1.1.2
O34788	1.1.1.4
O34790	2.5.1.n9
O34885	3.1.21.4
O34895	2.3.1.264
O34919	3.6.1.23
O35002	3.4.21.102
O35010	3.4.14.13
O35011	2.7.7.6
O35025	3.1.21.4
O50078	4.1.3.1
O50083	5.3.1.6
O50131	2.6.1.13
O50146	1.2.1.103
O50147	2.7.2.17
O50173	3.5.1.134
O50410	2.5.1.29
O50580	5.1.3.31
O50660	4.2.2.3
O51265	2.7.8.24
O51338	3.1.4.52
O51767	3.6.4.13
O52063	3.5.4.42
O52195	4.2.2.3
O52249	2.3.1.178
O52250	2.6.1.76
O52251	4.2.1.108
O52378	1.18.1.7
O52382	1.14.12.12
O52552	4.2.1.144
O52681	1.12.1.4
O52682	1.12.1.4
O52683	1.12.1.4
O52793	4.2.1.159
O52958	2.7.6.1
O52980	5.2.1.8
O53166	4.2.1.3
O53181	1.2.7.3
O53182	1.2.7.3
O53388	3.3.2.10
O53423	3.1.1.6
O53512	2.5.1.54
O53521	6.2.1.3
O53580	6.2.1.20
O53585	2.4.1.288
O53699	2.8.2.37
O53857	2.7.13.3
O53873	3.6.4.12
O53896	3.4.21.107
O54028	7.2.4.3
O54029	7.2.4.3
O54030	7.2.4.3
O54031	7.2.4.3
O54068	1.1.1.22
O54143	1.3.8.14
O54154	6.2.1.53
O54259	1.13.12.22
O54288	4.1.2.55
O57693	1.2.1.90
O57767	2.5.1.72
O57839	3.5.3.11
O57878	5.1.1.10
O58212	3.13.2.3
O58231	2.7.1.165
O58308	1.8.1.14
O58328	2.7.1.147
O58389	1.1.1.103
O58403	5.1.1.13
O58456	2.1.1.98
O58478	5.1.1.1
O58690	3.1.3.70
O58832	2.5.1.108
O58966	1.11.1.24
O59245	6.5.1.8
O59413	3.5.1.124
O59646	3.1.21.4
O66186	3.5.5.8
O66187	3.5.5.8
O66188	3.5.5.8
O66251	1.1.1.133
O66465	2.7.8.13
O66663	2.4.99.12
O66990	3.5.2.3
O67035	3.1.26.5
O67049	1.1.1.25
O67108	5.6.2.2
O67137	5.6.2.2
O67577	2.1.1.34
O67625	1.17.7.4
O67648	3.5.1.108
O68252	1.21.99.5
O68282	1.1.1.363
O68557	3.1.21.4
O68640	2.3.1.31
O68897	3.5.1.38
O69056	1.4.1.23
O69264	1.3.1.119
O69652	4.4.1.1
O69689	2.6.1.1
O69721	1.3.1.12
O69762	4.1.2.61
O70023	2.4.1.317
O74023	2.1.1.63
O82827	2.5.1.31
O84395	2.6.1.83
O84925	1.6.3.4
O85040	4.1.1.39
O85042	4.2.1.1
O85465	3.2.1.4
O85501	2.7.4.6
O85673	1.14.12.1
O85674	1.14.12.1
O85675	1.18.1.3
O86028	5.4.99.2
O86041	1.13.11.4
O86043	5.2.1.4
O86309	2.3.1.5
O86372	3.2.1.23
O87082	1.14.13.69
O87170	3.1.1.57
O87172	2.4.1.25
O87198	2.3.3.14
O87393	6.3.1.2
O87605	1.14.15.33
O87761	6.3.4.2
O87833	2.1.1.239
O87871	1.1.1.368
O87872	3.7.1.21
O87948	1.7.2.3
O93627	4.1.1.39
O93658	2.1.1.250
O93661	2.1.1.249
O93732	6.5.1.9
O93779	5.1.1.13
P00183	1.14.15.1
P00343	1.1.1.27
P00344	1.1.1.27
P00363	1.3.5.1
P00370	1.4.1.4
P00381	1.5.1.3
P00383	1.5.1.3
P00392	1.16.1.1
P00393	1.6.5.9
P00436	1.13.11.3
P00437	1.13.11.3
P00438	1.14.13.2
P00452	1.17.4.1
P00459	1.18.6.1
P00469	2.1.1.45
P00484	2.3.1.28
P00497	2.4.2.14
P00509	2.6.1.1
P00550	2.7.1.197
P00634	3.1.3.1
P00642	3.1.21.4
P00644	3.1.31.1
P00722	3.2.1.23
P00733	3.4.17.14
P00777	3.4.21.81
P00778	3.4.21.12
P00780	3.4.21.62
P00782	3.4.21.62
P00800	3.4.24.27
P00803	3.4.21.89
P00804	3.4.23.36
P00805	3.5.1.1
P00816	4.2.1.104
P00861	4.1.1.20
P00862	4.1.1.22
P00864	4.1.1.31
P00879	4.1.1.39
P00903	2.6.1.85
P00914	4.1.99.3
P00929	4.2.1.20
P00935	2.5.1.48
P00944	5.3.1.5
P00948	5.3.3.4
P00952	6.1.1.1
P00953	6.1.1.2
P00954	6.1.1.2
P00956	6.1.1.5
P00957	6.1.1.7
P00962	6.1.1.18
P00963	6.3.1.1
P00968	6.3.5.5
P02915	7.4.2.1
P03007	2.7.7.7
P03018	5.6.2.4
P03813	5.1.1.10
P03960	7.2.2.6
P04036	1.17.1.8
P04043	2.1.1.72
P04079	6.3.5.2
P04190	3.5.2.6
P04335	3.1.1.1
P04390	3.1.21.4
P04391	2.1.3.3
P04395	3.2.2.21
P04425	6.3.2.3
P04718	4.1.1.39
P04787	4.2.1.33
P04805	6.1.1.17
P04825	3.4.11.2
P04968	4.3.1.19
P04982	5.4.99.62
P04983	7.5.2.7
P04994	3.1.11.6
P04995	3.1.11.1
P05020	3.5.2.3
P05041	2.6.1.85
P05042	4.2.1.2
P05055	2.7.7.8
P05100	3.2.2.20
P05101	2.1.1.37
P05102	2.1.1.37
P05104	3.1.21.4
P05149	5.1.3.3
P05194	4.2.1.10
P05302	2.1.1.37
P05341	2.8.1.7
P05364	3.5.2.6
P05404	5.5.1.7
P05425	7.2.2.8
P05655	2.4.1.10
P05707	1.1.1.140
P05791	4.2.1.9
P05793	1.1.1.86
P05804	3.2.1.31
P05852	2.3.1.234
P05989	1.1.1.86
P06149	1.1.5.12
P06150	1.1.1.27
P06278	3.2.1.1
P06279	3.2.1.1
P06612	5.6.2.1
P06621	3.4.17.11
P06622	1.13.11.2
P06709	6.3.4.15
P06875	3.5.1.11
P06961	2.7.7.72
P06968	3.6.1.23
P06983	2.5.1.61
P06988	1.1.1.23
P07001	7.1.1.1
P07003	1.2.5.1
P07061	3.5.1.46
P07062	3.5.1.46
P07112	2.7.7.101
P07254	3.2.1.14
P07328	1.18.6.1
P07329	1.18.6.1
P07445	5.3.3.1
P07464	2.3.1.18
P07598	1.12.7.2
P07603	1.12.7.2
P07623	2.3.1.46
P07639	4.2.3.4
P07649	5.4.99.12
P07650	2.4.2.4
P07658	1.17.98.4
P07662	3.5.1.93
P07739	1.14.14.3
P07740	1.14.14.3
P07773	1.13.11.1
P07801	2.1.1.80
P07821	7.2.2.16
P07862	6.3.2.4
P07913	1.1.1.103
P07914	1.1.1.395
P08078	2.1.4.2
P08159	1.5.3.6
P08164	6.3.1.5
P08178	6.3.3.1
P08179	2.1.2.2
P08200	1.1.1.42
P08203	5.1.3.4
P08310	5.5.1.1
P08337	3.6.1.55
P08373	1.3.1.98
P08658	3.1.1.3
P08660	2.7.2.4
P08690	7.3.2.7
P08692	1.20.4.1
P08839	2.7.3.9
P08956	3.1.21.3
P08957	2.1.1.72
P09029	6.3.4.18
P09030	3.1.11.2
P09099	2.7.1.17
P09124	1.2.1.12
P09143	6.2.1.4
P09147	5.1.3.2
P09148	2.7.7.12
P09155	3.1.13.5
P09169	3.4.23.49
P09323	2.7.1.193
P09339	4.2.1.3
P09357	3.1.21.4
P09358	2.1.1.72
P09373	2.3.1.54
P09394	3.1.4.46
P09424	1.1.1.17
P09598	3.1.4.3
P09773	4.3.1.12
P09788	1.17.9.1
P09831	1.4.1.13
P09832	1.4.1.13
P09835	2.7.13.3
P09850	3.2.1.8
P0A006	1.20.4.4
P0A0C2	2.7.1.190
P0A110	1.14.12.12
P0A115	3.1.1.45
P0A1B9	7.4.2.8
P0A1C1	7.4.2.8
P0A1E3	2.5.1.47
P0A1P4	1.1.1.341
P0A1P6	6.3.1.2
P0A1V6	2.7.6.1
P0A208	2.7.2.1
P0A249	2.7.3.9
P0A251	1.11.1.26
P0A2K1	4.2.1.20
P0A3G4	3.8.1.5
P0A3V5	3.5.2.15
P0A3Y5	2.7.1.95
P0A405	1.97.1.12
P0A407	1.97.1.12
P0A434	3.1.8.1
P0A444	1.10.3.9
P0A459	3.1.21.4
P0A4E1	2.7.1.2
P0A4Q0	2.3.1.275
P0A591	6.3.1.2
P0A601	2.7.13.3
P0A6B4	5.1.1.1
P0A6B7	2.8.1.7
P0A6C1	3.1.21.2
P0A6C8	2.7.2.8
P0A6D3	2.5.1.19
P0A6D5	1.1.1.282
P0A6E1	2.7.1.71
P0A6F1	6.3.5.5
P0A6F5	5.6.1.7
P0A6G5	2.7.7.61
P0A6G7	3.4.21.92
P0A6I6	2.7.7.3
P0A6I9	2.7.1.24
P0A6J1	2.7.1.25
P0A6K1	5.1.1.7
P0A6K3	3.5.1.88
P0A6L0	4.1.2.4
P0A6L2	4.3.3.7
P0A6L4	4.1.3.3
P0A6M4	3.1.1.96
P0A6Q6	4.2.1.59
P0A6R0	2.3.1.180
P0A6T5	3.5.4.16
P0A6V1	2.7.7.27
P0A6V5	2.8.1.1
P0A6V8	2.7.1.2
P0A6W3	2.7.8.13
P0A715	2.5.1.55
P0A717	2.7.6.1
P0A720	2.7.4.9
P0A722	2.3.1.129
P0A725	3.5.1.108
P0A731	4.2.3.3
P0A738	4.6.1.17
P0A744	1.8.4.11
P0A752	2.7.7.18
P0A759	3.5.99.6
P0A763	2.7.4.6
P0A786	2.1.3.2
P0A790	4.1.1.11
P0A794	2.6.99.2
P0A796	2.7.1.11
P0A7A5	2.1.1.77
P0A7A7	2.3.1.15
P0A7B1	2.7.4.1
P0A7B8	3.4.25.2
P0A7C2	3.4.21.88
P0A7D1	3.1.1.29
P0A7D4	6.3.4.4
P0A7D7	6.3.2.6
P0A7E3	2.4.2.10
P0A7E5	6.3.4.2
P0A7E9	2.7.4.22
P0A7I7	3.5.4.25
P0A7J0	4.1.99.12
P0A7Y4	3.1.26.4
P0A812	3.6.4.12
P0A814	3.1.21.10
P0A817	2.5.1.6
P0A825	2.1.2.1
P0A836	6.2.1.5
P0A847	2.4.2.29
P0A850	5.2.1.8
P0A858	5.3.1.1
P0A862	1.11.1.24
P0A870	2.2.1.2
P0A873	2.1.1.228
P0A884	2.1.1.45
P0A8D6	3.1.1.106
P0A8G6	1.6.5.2
P0A8G9	3.1.11.6
P0A8I5	2.1.1.33
P0A8I8	2.1.1.177
P0A8L1	6.1.1.11
P0A8M0	6.1.1.22
P0A8M3	6.1.1.3
P0A8Y1	3.1.3.5
P0A8Y3	3.1.3.10
P0A944	2.3.1.266
P0A948	2.3.1.267
P0A951	2.3.1.57
P0A953	2.3.1.41
P0A959	2.6.1.2
P0A991	4.1.2.13
P0A993	3.1.3.11
P0A9B2	1.2.1.12
P0A9D2	2.5.1.18
P0A9D8	2.3.1.117
P0A9G6	4.1.3.1
P0A9H1	3.2.2.28
P0A9H3	4.1.1.18
P0A9H7	2.1.1.79
P0A9J4	1.1.1.169
P0A9J6	2.7.1.15
P0A9L3	5.2.1.8
P0A9L5	5.2.1.8
P0A9M2	2.4.2.8
P0A9M5	2.4.2.22
P0A9M8	2.3.1.8
P0A9P4	1.8.1.9
P0A9P9	1.1.1.69
P0A9Q9	1.2.1.11
P0A9S3	1.1.1.251
P0A9X1	7.2.2.20
P0AA39	5.4.99.24
P0AAB2	3.1.3.48
P0AAB4	4.1.1.98
P0AAF6	7.4.2.1
P0AAG0	7.4.2.9
P0AAG8	7.5.2.11
P0AAI1	7.6.2.14
P0AAI5	2.3.1.179
P0AAI9	2.3.1.39
P0AAP1	2.7.7.65
P0AAV4	3.5.2.9
P0AB65	3.6.1.7
P0AB71	4.1.2.13
P0AB77	2.3.1.29
P0AB80	2.6.1.42
P0AB83	4.2.99.18
P0AB87	4.1.2.17
P0AB89	4.3.2.2
P0ABD5	2.1.3.15
P0ABE5	1.10.3.17
P0ABE9	4.2.1.1
P0ABF6	3.5.4.5
P0ABF8	2.7.8.5
P0ABG7	2.4.1.129
P0ABI8	7.1.1.3
P0ABJ9	7.1.1.7
P0ABK2	7.1.1.7
P0ABK5	4.5.1.5
P0ABK9	1.7.2.2
P0ABN1	2.7.1.107
P0ABP8	2.4.2.1
P0ABQ2	1.1.1.60
P0ABR7	1.14.13.239
P0ABR9	1.13.11.16
P0ABS5	2.7.7.101
P0ABU0	4.1.3.36
P0ABZ6	5.2.1.8
P0AC13	2.5.1.15
P0AC19	5.1.99.7
P0AC28	6.3.3.2
P0AC41	1.3.5.1
P0AC47	1.3.5.1
P0AC78	2.7.8.33
P0AC81	4.4.1.5
P0AC84	3.1.2.6
P0AC88	4.2.1.47
P0ACB2	4.2.1.24
P0ACB4	1.3.5.3
P0ACC1	2.1.1.297
P0ACV0	2.3.1.241
P0ACV2	2.3.1.242
P0ACX5	4.2.1.2
P0AD57	2.5.1.90
P0AD61	2.7.1.40
P0AD65	3.4.16.4
P0AD68	3.4.16.4
P0ADF6	4.2.1.12
P0ADG4	3.1.3.25
P0ADP0	3.1.3.104
P0ADP2	3.1.2.20
P0ADX9	2.1.1.171
P0AE01	2.1.1.200
P0AE05	2.7.7.46
P0AE08	1.11.1.26
P0AE12	3.2.2.4
P0AE52	1.11.1.24
P0AE82	2.7.13.3
P0AEA5	2.5.1.141
P0AEC5	2.7.13.3
P0AEC8	2.7.13.3
P0AED7	3.5.1.18
P0AEI1	2.8.4.3
P0AEI4	2.8.4.4
P0AEJ2	5.4.4.2
P0AEJ4	2.7.13.3
P0AEJ6	4.3.1.7
P0AEK2	1.1.1.100
P0AEK4	1.3.1.9
P0AEM0	5.2.1.8
P0AEP3	2.7.7.9
P0AEP7	4.1.1.47
P0AEP9	1.1.99.14
P0AES2	4.2.1.40
P0AES4	5.6.2.2
P0AES6	5.6.2.2
P0AET8	1.1.1.159
P0AEV9	3.4.23.51
P0AEW4	3.1.4.53
P0AEW6	2.7.1.73
P0AEW9	2.7.1.56
P0AEY5	1.6.5.10
P0AEZ1	1.5.1.54
P0AF03	2.7.7.75
P0AF18	3.5.1.25
P0AF24	3.1.3.5
P0AFB5	2.7.13.3
P0AFC0	3.6.1.67
P0AFG3	1.2.4.2
P0AFG6	2.3.1.61
P0AFI2	5.6.2.2
P0AFI7	1.4.3.5
P0AFL3	5.2.1.8
P0AFL6	3.6.1.11
P0AG06	2.7.7.47
P0AG07	5.1.3.1
P0AG16	2.4.2.14
P0AG18	5.4.99.18
P0AGD3	1.15.1.1
P0AGD7	3.6.5.4
P0AGE6	1.6.5.2
P0AGE9	6.2.1.5
P0AGG2	3.1.2.20
P0AGJ2	2.1.1.34
P0AGJ9	6.1.1.1
P0AGK1	2.5.1.39
P0C0D7	6.3.2.9
P0C0F4	1.1.1.22
P0C0F7	2.7.13.3
P0C0J0	3.4.22.10
P0C0J1	3.4.22.10
P0C0K3	2.7.11.1
P0C0Q6	1.15.1.1
P0C0V0	3.4.21.107
P0C0X1	2.5.1.15
P0C1A3	4.2.2.2
P0C1A7	4.2.2.2
P0C1A9	3.1.1.11
P0C559	5.6.2.2
P0C882	2.5.1.41
P0C8J6	4.1.2.40
P0C8P4	3.5.1.9
P0CG18	2.7.7.56
P0DJQ3	3.5.3.22
P0DJQ7	6.3.3.4
P0DKX7	4.6.1.1
P0DMM5	2.7.14.1
P0DMP6	2.4.1.306
P0DN72	6.3.1.20
P0DO96	2.3.3.3
P0DOA0	2.7.13.3
P0DOV5	1.1.1.390
P0DOV6	3.1.1.99
P0DOV7	4.2.1.162
P0DOV8	4.1.2.58
P0DOV9	1.2.1.97
P0DOW0	1.1.1.401
P0DP44	2.7.4.1
P0DP65	3.5.1.3
P0DP66	3.5.1.128
P0DP68	3.5.1.128
P0DP90	2.2.1.6
P0DPC1	3.3.2.15
P0DPE4	1.5.1.43
P0DPE9	1.2.99.10
P0DPF0	1.2.99.10
P0DPI0	3.4.24.69
P0DPI1	3.4.24.69
P0DPK1	3.4.24.69
P0DPK6	4.2.3.158
P0DPS1	2.7.7.7
P0DPS9	2.7.11.1
P0DQD8	5.1.1.23
P0DTF7	2.7.7.85
P0DTQ1	5.3.1.23
P0DTQ2	2.7.1.100
P0DTQ4	4.1.1.25
P0DTS9	3.2.2.6
P0DTT6	7.5.2.13
P0DUB8	3.1.1.3
P0DUB9	3.1.1.3
P0DUE2	2.7.7.65
P0DUE3	2.7.7.65
P0DUF3	2.1.1.72
P0DUF9	2.1.1.72
P0DUM7	4.2.1.28
P0DUM8	4.2.1.28
P0DUM9	4.2.1.28
P0DUW5	3.5.1.44
P0DV24	4.6.1.6
P0DV26	4.6.1.6
P0DV29	3.2.2.5
P0DV34	3.1.3.15
P0DV35	1.1.99.39
P0DV38	4.6.1.6
P0DV40	4.6.1.26
P0DV42	4.6.1.26
P0DV59	2.7.7.49
P0DV68	1.11.1.5
P0DV69	1.11.1.5
P0DV86	2.7.7.49
P0DW08	2.1.1.37
P0DW59	3.2.2.5
P0DW60	3.2.2.5
P0DW79	3.13.1.3
P0DW80	1.5.1.42
P0DW93	3.2.1.140
P0DX06	2.1.1.383
P0DX11	1.14.11.71
P0DX12	1.13.11.89
P0DX13	4.3.2.11
P0DX14	6.2.1.47
P0DX22	3.1.1.120
P0DX23	1.1.1.51
P0DX24	1.1.1.51
P10121	3.6.5.4
P10182	3.5.1.38
P10249	2.4.1.7
P10283	2.1.1.37
P10342	3.2.1.68
P10408	7.4.2.8
P10441	2.4.1.182
P10443	2.7.7.7
P10484	2.1.1.72
P10486	3.1.21.3
P10618	1.2.1.59
P10724	5.1.1.1
P10844	3.4.24.69
P10902	1.4.3.16
P10907	7.6.2.10
P10908	3.1.4.46
P11073	4.2.2.2
P11162	2.7.1.207
P11295	1.14.13.59
P11405	3.1.21.4
P11409	2.1.1.113
P11411	1.1.1.363
P11439	2.4.2.36
P11444	5.1.2.2
P11446	1.2.1.38
P11458	2.5.1.72
P11512	2.7.7.6
P11513	2.7.7.6
P11514	2.7.7.6
P11521	2.7.7.6
P11546	3.2.1.85
P11558	2.8.4.1
P11560	2.8.4.1
P11562	2.8.4.1
P11569	4.2.1.167
P11570	4.2.1.167
P11652	5.4.99.2
P11653	5.4.99.2
P11663	4.2.1.2
P11742	2.1.1.63
P11759	1.1.1.132
P11880	6.3.2.10
P11998	2.5.1.78
P12008	4.2.3.5
P12047	4.3.2.2
P12070	5.3.1.5
P12256	3.5.1.11
P12281	2.10.1.1
P12295	3.2.2.27
P12364	2.1.1.72
P12425	6.3.1.2
P12744	1.14.14.3
P12758	2.4.2.3
P12884	2.3.1.235
P12944	1.12.2.1
P12946	1.17.99.9
P12995	2.6.1.62
P12996	2.8.1.6
P12998	2.3.1.47
P13000	6.3.3.3
P13009	2.1.1.13
P13016	3.5.1.28
P13039	3.1.1.108
P13063	1.12.99.6
P13065	1.12.99.6
P13448	4.2.1.84
P13449	4.2.1.84
P13484	2.4.1.52
P13485	2.7.8.12
P13507	3.2.1.60
P13650	1.1.5.2
P13661	3.5.2.6
P13715	1.1.1.27
P13717	3.1.30.2
P13956	2.1.1.184
P14165	2.3.3.16
P14193	2.7.6.1
P14229	3.1.21.4
P14230	2.1.1.113
P14262	4.6.1.13
P14294	5.6.2.1
P14299	2.4.2.37
P14300	3.2.2.24
P14385	2.1.1.72
P14532	1.11.1.5
P14611	2.3.1.9
P14633	3.1.21.4
P14751	2.1.1.72
P14827	2.1.1.72
P14870	3.1.21.4
P14871	2.1.1.72
P14900	6.3.2.9
P14929	3.6.5.4
P15031	7.2.2.18
P15034	3.4.11.9
P15047	1.3.1.28
P15067	3.2.1.196
P15093	1.5.1.3
P15273	3.1.3.48
P15474	4.2.1.10
P15623	6.3.1.2
P15640	6.3.4.13
P15717	4.2.1.33
P15723	3.1.5.1
P15770	1.1.1.25
P15840	2.1.1.37
P15875	2.3.3.13
P15877	1.1.5.2
P15917	3.4.24.83
P15922	3.2.1.82
P15925	6.3.2.17
P15926	3.4.21.110
P16099	1.5.8.2
P16115	1.1.1.27
P16426	2.3.1.183
P16456	2.7.9.3
P16538	2.3.1.235
P16539	2.3.1.235
P16558	2.3.1.235
P16559	2.3.1.235
P16640	1.18.1.5
P16667	3.1.21.4
P16688	4.7.1.1
P16691	2.3.1.280
P16932	4.1.1.64
P17044	2.1.1.37
P17055	1.14.15.9
P17115	5.3.1.13
P17169	2.6.1.16
P17411	3.2.1.86
P17443	2.4.1.227
P17550	1.15.1.1
P17556	1.4.1.1
P17557	1.4.1.1
P17721	1.2.1.12
P17802	3.2.2.31
P17846	1.8.1.2
P17854	1.8.4.8
P18014	2.3.2.27
P18143	3.4.17.18
P18314	3.5.1.5
P18315	3.5.1.5
P18316	3.5.1.5
P18326	1.14.15.22
P18548	1.14.20.1
P18644	2.1.1.230
P18843	6.3.1.5
P18912	2.7.2.3
P19080	5.4.99.5
P19220	2.1.1.63
P19264	4.3.1.7
P19265	4.3.1.7
P19337	1.1.1.395
P19409	6.2.1.7
P19410	1.3.1.115
P19412	4.2.1.106
P19413	2.8.3.25
P19531	3.2.1.133
P19624	1.1.1.262
P19636	4.3.1.7
P19665	1.15.1.1
P19730	1.14.13.244
P19731	1.14.13.244
P19732	1.14.13.244
P19733	1.14.13.244
P19734	1.14.13.244
P19839	1.14.14.3
P19840	1.14.14.3
P19841	1.2.1.50
P19919	1.2.5.3
P19920	1.2.5.3
P19921	1.2.5.3
P19938	2.6.1.21
P20021	7.2.2.21
P20083	5.6.2.2
P20388	1.14.19.6
P20429	2.7.7.6
P20533	3.2.1.14
P20581	3.1.2.32
P20582	2.3.1.262
P20586	1.14.13.2
P20589	2.1.1.37
P20626	3.1.4.41
P20906	4.1.1.7
P20966	2.7.1.202
P21110	2.8.4.1
P21111	2.8.4.1
P21112	2.8.4.1
P21151	2.3.1.16
P21156	2.7.7.4
P21163	3.5.1.52
P21164	6.3.4.3
P21170	4.1.1.19
P21179	1.11.1.6
P21310	4.3.1.3
P21332	3.2.1.10
P21340	2.3.1.57
P21369	3.5.1.19
P21394	1.18.1.3
P21395	1.14.15.26
P21514	3.1.4.52
P21631	2.1.1.107
P21632	6.3.5.9
P21638	5.4.99.61
P21645	2.3.1.191
P21683	2.5.1.32
P21687	5.5.1.19
P21763	3.1.21.4
P21778	2.7.1.11
P21795	1.13.12.4
P21861	2.3.1.183
P21873	1.2.4.1
P21874	1.2.4.1
P21889	6.1.1.12
P21909	4.2.1.12
P22008	1.5.1.2
P22088	3.1.1.3
P22106	6.3.5.4
P22188	6.3.2.13
P22253	6.3.4.21
P22255	3.1.3.7
P22259	4.1.1.49
P22333	3.5.4.4
P22610	3.4.23.43
P22619	1.4.9.1
P22634	5.1.1.3
P22635	1.13.11.8
P22636	1.13.11.8
P22643	3.8.1.5
P22751	4.2.2.9
P22823	1.4.1.20
P22849	4.1.1.39
P22859	4.1.1.39
P22862	3.1.1.2
P22948	2.8.4.1
P22949	2.8.4.1
P22950	2.8.4.1
P22983	2.7.9.1
P23011	4.1.1.39
P23070	2.7.7.49
P23133	3.7.1.25
P23146	1.14.14.3
P23147	1.14.14.3
P23247	1.2.1.11
P23256	4.4.1.13
P23307	1.4.1.20
P23354	2.7.1.56
P23395	6.1.1.10
P23522	4.1.2.20
P23524	2.7.1.165
P23530	2.7.3.9
P23533	2.7.3.9
P23657	3.1.21.4
P23658	3.2.1.4
P23670	4.1.1.4
P23673	2.8.3.9
P23721	2.6.1.52
P23737	2.1.1.37
P23845	2.7.7.4
P23869	5.2.1.8
P23874	2.7.11.1
P23878	7.2.2.17
P23882	2.1.2.9
P23883	1.2.1.5
P23893	5.4.3.8
P23904	3.2.1.73
P23908	3.5.1.16
P23924	7.5.2.11
P23930	2.3.1.269
P23940	3.1.21.4
P23941	2.1.1.113
P24009	2.5.1.141
P24113	1.14.14.3
P24169	4.1.1.17
P24182	6.3.4.14
P24183	1.17.5.3
P24197	1.13.11.29
P24205	2.3.1.243
P24215	4.2.1.8
P24230	3.6.4.12
P24295	1.4.1.2
P24400	2.7.1.207
P24546	3.1.21.4
P24630	5.4.3.8
P24670	4.2.1.10
P25006	1.7.2.1
P25051	6.1.2.1
P25052	3.5.99.2
P25053	5.3.99.10
P25080	4.2.1.49
P25126	6.2.1.4
P25217	3.1.21.4
P25240	2.1.1.72
P25257	3.1.21.4
P25258	3.1.21.4
P25260	3.1.21.4
P25261	3.1.21.4
P25263	2.1.1.37
P25282	2.1.1.37
P25283	2.1.1.37
P25503	4.2.1.49
P25516	4.2.1.3
P25524	3.5.4.1
P25535	1.14.13.240
P25536	3.6.1.9
P25552	3.6.1.40
P25745	2.8.1.13
P25906	1.1.1.65
P25910	3.5.2.6
P25960	3.4.23.43
P25971	4.1.1.23
P26163	1.3.7.7
P26164	1.3.7.7
P26168	1.21.98.3
P26177	1.3.7.15
P26178	1.3.7.15
P26179	1.3.7.15
P26221	3.2.1.4
P26239	6.6.1.1
P26257	3.2.1.23
P26281	2.7.6.3
P26297	1.1.1.28
P26380	2.7.1.202
P26391	4.2.1.46
P26392	1.1.1.133
P26393	2.7.7.24
P26394	5.1.3.13
P26420	2.7.1.4
P26458	7.1.1.3
P26459	7.1.1.3
P26509	3.2.1.15
P26602	4.1.3.40
P26612	3.2.1.1
P26876	3.1.1.3
P26877	3.1.1.3
P26901	1.11.1.6
P26918	3.5.2.6
P27000	6.1.1.17
P27001	6.1.1.20
P27002	6.1.1.20
P27142	2.7.4.3
P27278	2.7.7.1
P27296	3.6.4.12
P27300	2.7.1.130
P27302	2.2.1.1
P27306	1.6.1.1
P27353	1.14.13.25
P27354	1.14.13.25
P27355	1.14.13.25
P27431	1.14.11.47
P27620	2.4.1.187
P27621	2.7.8.44
P27623	2.7.7.39
P27696	2.2.1.6
P27828	5.1.3.14
P27829	1.1.1.336
P27830	4.2.1.46
P27833	2.6.1.59
P27988	2.3.1.169
P27997	4.1.1.39
P28248	3.5.4.13
P28305	4.1.3.38
P28366	7.4.2.8
P28467	4.1.3.1
P28629	4.1.1.19
P28638	2.1.1.72
P28720	2.4.2.29
P28784	3.4.22.37
P28796	4.1.99.1
P28810	1.2.1.27
P28811	1.1.1.31
P28903	1.1.98.6
P28904	3.2.1.93
P28997	1.4.1.2
P29079	5.1.1.13
P29208	4.2.1.113
P29238	1.14.14.3
P29239	1.14.14.3
P29564	2.1.1.107
P29565	3.1.21.4
P29566	3.1.21.4
P29567	2.1.1.37
P29568	2.1.1.113
P29588	3.2.2.29
P29808	2.3.1.81
P29847	2.3.1.30
P29894	1.4.9.1
P29928	2.1.1.107
P29957	3.2.1.1
P30011	2.4.2.19
P30125	1.1.1.85
P30137	2.5.1.3
P30140	4.1.99.19
P30178	1.1.1.237
P30750	7.4.2.11
P30850	3.1.13.1
P30996	3.4.24.69
P31005	1.1.1.244
P31013	4.1.99.2
P31057	2.1.2.11
P31080	3.4.21.88
P31120	5.4.2.10
P31129	2.7.7.65
P31134	7.6.2.16
P31142	2.8.1.2
P31545	4.98.1.1
P31551	4.2.1.149
P31552	6.2.1.48
P31570	2.5.1.17
P31572	2.8.3.21
P31677	2.4.1.15
P31678	3.1.3.12
P32055	1.1.1.271
P32113	7.2.2.8
P32131	1.3.98.3
P32138	3.2.1.199
P32140	5.3.1.31
P32141	4.1.2.57
P32143	2.7.1.184
P32156	5.1.3.32
P32166	2.5.1.74
P32169	4.1.2.19
P32170	5.3.1.14
P32171	2.7.1.5
P32370	1.3.1.116
P32396	4.99.1.9
P32397	1.3.3.15
P32400	3.5.1.59
P32440	1.12.98.2
P32441	1.12.98.2
P32664	3.6.1.22
P32684	5.4.99.21
P32695	1.3.1.91
P32717	3.1.6.21
P32816	1.1.1.6
P32960	5.1.1.10
P33025	4.2.1.70
P33038	2.5.1.7
P33160	1.17.1.9
P33221	6.3.1.21
P33562	3.1.21.4
P33563	2.1.1.72
P33570	2.2.1.1
P33639	2.7.13.3
P33665	3.2.1.132
P33667	2.9.1.3
P33752	2.8.3.9
P33919	3.6.4.12
P33937	1.9.6.1
P34037	2.6.1.9
P34945	6.1.1.11
P35150	3.4.16.4
P35482	3.1.3.1
P36234	1.1.1.29
P36640	7.2.2.14
P36649	1.16.3.4
P36655	1.8.1.8
P36672	2.7.1.201
P36911	3.2.1.96
P36923	4.2.1.10
P36936	3.4.13.21
P36979	2.1.1.192
P37001	2.3.1.251
P37025	3.1.4.58
P37062	1.11.1.1
P37063	1.2.3.3
P37081	2.7.1.206
P37093	7.4.2.8
P37105	3.6.5.4
P37113	3.5.1.87
P37177	2.7.3.9
P37188	2.7.1.200
P37269	2.5.1.32
P37294	2.5.1.32
P37313	7.4.2.9
P37330	2.3.3.9
P37339	1.1.5.13
P37349	2.7.1.121
P37351	5.3.1.6
P37365	1.14.13.130
P37402	1.1.1.169
P37412	1.1.1.85
P37439	2.7.1.199
P37450	4.2.1.28
P37484	3.1.4.59
P37527	4.3.3.6
P37552	3.5.99.10
P37570	2.7.14.1
P37573	2.7.7.85
P37600	1.8.5.5
P37610	1.14.11.17
P37646	3.1.4.52
P37661	2.7.8.42
P37672	1.1.1.130
P37677	2.7.1.53
P37678	4.1.1.85
P37680	5.1.3.4
P37685	1.2.1.4
P37689	5.4.2.12
P37724	2.5.1.75
P37744	2.7.7.24
P37747	5.4.99.9
P37769	1.1.1.127
P37773	6.3.2.45
P37774	7.4.2.12
P37794	3.5.1.105
P37870	2.7.7.6
P37871	2.7.7.6
P37957	3.1.1.3
P37965	3.1.4.46
P38021	2.6.1.13
P38032	1.4.3.16
P38038	1.8.1.2
P38045	7.3.2.4
P38046	7.3.2.4
P38051	5.4.4.2
P38488	3.5.3.3
P38489	1.5.1.34
P38502	2.7.2.1
P38539	1.1.2.7
P38540	1.1.2.7
P38939	3.2.1.41
P38945	1.1.1.61
P39121	4.1.2.4
P39135	2.7.8.7
P39138	3.5.3.1
P39142	2.4.2.2
P39155	3.9.1.2
P39163	4.3.2.7
P39199	2.1.1.298
P39304	4.1.1.85
P39306	5.1.3.4
P39358	4.2.1.82
P39359	4.1.2.28
P39371	5.1.3.24
P39400	1.1.1.414
P39406	2.1.1.172
P39411	3.6.1.73
P39461	4.2.1.2
P39463	2.7.7.6
P39466	2.7.7.6
P39471	2.7.7.6
P39472	2.7.7.6
P39594	2.5.1.3
P39604	2.4.1.129
P39605	1.5.1.38
P39629	2.7.7.24
P39630	4.2.1.46
P39633	1.4.1.2
P39638	4.1.1.100
P39639	5.3.3.19
P39640	1.1.1.385
P39641	6.3.2.49
P39701	3.1.3.73
P39792	3.1.21.10
P39795	3.2.1.93
P39815	2.1.1.74
P39822	4.1.1.65
P39829	4.2.1.42
P39888	1.14.13.200
P39909	2.3.1.57
P40136	4.6.1.1
P40191	2.7.1.35
P40290	7.4.2.8
P40332	1.1.1.370
P40406	3.2.1.52
P40407	3.2.1.92
P40600	3.1.1.3
P40732	2.6.1.11
P40758	2.7.13.3
P40814	2.1.1.72
P40817	4.3.1.15
P40859	1.5.3.1
P40881	4.2.1.1
P41020	3.5.1.5
P41256	6.1.1.1
P41407	1.7.1.17
P41790	2.3.1.8
P41793	1.2.1.10
P42068	3.5.3.8
P42084	3.5.2.7
P42236	1.2.1.26
P42269	1.2.1.60
P42270	4.2.1.163
P42360	7.2.2.5
P42365	1.11.1.24
P42404	5.3.1.27
P42412	1.2.1.27
P42449	4.1.3.1
P42535	1.14.13.50
P42593	1.3.1.34
P42596	2.1.1.174
P42620	1.8.5.7
P42632	2.3.1.54
P42790	3.4.21.100
P42829	1.3.1.9
P42962	3.1.3.104
P42963	3.5.2.9
P42971	3.4.16.4
P43099	4.1.1.17
P43341	3.6.1.54
P43379	2.4.1.19
P43418	3.1.21.4
P43912	2.1.1.228
P44046	3.6.1.54
P44093	2.7.1.217
P44094	1.1.1.410
P44758	1.11.1.27
P44774	1.1.1.25
P44801	1.2.1.11
P44806	2.4.99.12
P44814	3.1.1.96
P44859	5.1.1.7
P44979	1.1.1.411
P45066	6.3.2.8
P45131	2.3.1.31
P45148	4.2.1.1
P45314	3.1.3.45
P45359	2.3.1.9
P45395	5.3.1.13
P45416	2.7.1.45
P45425	2.7.1.60
P45470	3.5.1.124
P45493	3.5.1.32
P45511	1.1.1.6
P45513	1.1.1.202
P45541	5.1.3.41
P45543	2.7.1.218
P45563	2.4.2.1
P45568	1.1.1.267
P45573	1.8.99.5
P45575	1.8.99.5
P45741	2.5.1.2
P45858	2.3.3.16
P45868	1.1.1.38
P45947	1.20.4.4
P46022	2.4.1.129
P46107	3.4.19.3
P46139	2.7.7.65
P46217	2.7.7.6
P46452	3.1.3.82
P46849	6.5.1.4
P46850	6.5.1.8
P46854	2.3.1.53
P46883	1.4.3.21
P46903	7.2.2.4
P46904	7.2.2.4
P46923	1.7.2.3
P47205	3.5.1.108
P48243	7.4.2.1
P48636	3.2.2.4
P49058	1.1.1.205
P49424	3.2.1.78
P50187	3.1.21.4
P50457	2.6.1.19
P50848	3.4.17.19
P50921	5.3.1.1
P50933	1.1.1.27
P51016	4.1.3.39
P51691	3.1.6.1
P51961	2.5.1.9
P51981	5.1.1.20
P52046	4.2.1.150
P52061	3.6.1.66
P52073	1.1.99.14
P52074	1.1.99.14
P52095	4.1.1.18
P52197	2.8.1.1
P52279	3.4.11.5
P52391	2.1.1.230
P52699	3.5.2.6
P52700	3.5.2.6
P52832	5.4.2.12
P53554	1.14.14.46
P53555	2.6.1.105
P53593	6.2.1.5
P53608	3.5.3.1
P53641	1.15.1.1
P53652	1.15.1.1
P54226	1.2.1.12
P54422	2.3.2.2
P54462	2.8.4.5
P54488	3.4.16.4
P54495	2.7.1.2
P54506	3.4.21.89
P54548	3.1.26.11
P54550	1.6.99.1
P54572	1.1.1.38
P54715	2.7.1.208
P54745	2.7.1.195
P54965	3.5.1.24
P54974	5.5.1.19
P54995	1.14.14.22
P54998	1.14.14.21
P55038	1.4.7.1
P55253	2.7.7.24
P55300	1.5.98.1
P55818	1.5.1.5
P55819	2.6.1.45
P56076	5.3.1.1
P56081	4.2.3.4
P56200	3.1.21.4
P56206	6.1.1.14
P56218	3.4.11.18
P56220	2.3.1.117
P56255	5.6.2.4
P56511	1.1.1.27
P56580	2.7.1.198
P56601	1.3.3.4
P56690	6.1.1.5
P56709	6.5.1.1
P56868	5.1.1.3
P56891	1.8.4.10
P57714	2.3.1.46
P58329	3.5.2.15
P58350	2.6.1.39
P58415	4.1.1.79
P58416	4.1.1.79
P58687	4.2.1.10
P58718	1.1.1.408
P58815	2.8.4.1
P58816	2.8.4.1
P59407	4.1.3.3
P59655	2.5.1.15
P59828	5.1.3.37
P59846	6.3.4.5
P59934	1.2.7.4
P60327	3.5.1.77
P60340	5.4.99.25
P60355	1.11.1.6
P60495	3.5.2.9
P60527	3.8.1.2
P60546	2.7.4.8
P60584	1.3.8.13
P60716	2.8.1.8
P60752	7.5.2.6
P60955	2.5.1.145
P60959	2.5.1.145
P61425	4.1.99.23
P61517	4.2.1.1
P61880	1.2.1.59
P61887	2.7.7.24
P61889	1.1.1.37
P62593	3.5.2.6
P62615	2.7.1.148
P62617	4.6.1.12
P62620	1.17.7.3
P62623	1.17.7.4
P62707	5.4.2.11
P63186	2.3.2.2
P63228	3.1.3.82
P63710	1.14.15.29
P63820	2.7.7.3
P64461	5.3.1.32
P66815	2.3.1.286
P66899	4.3.1.15
P67603	3.5.1.135
P67910	5.1.3.20
P68187	7.5.2.1
P68747	2.1.3.3
P69451	6.2.1.3
P69786	2.7.1.199
P69795	2.7.1.196
P69797	2.7.1.191
P69822	2.7.1.194
P69848	4.1.99.22
P69902	2.8.3.16
P69924	1.17.4.1
P70718	1.1.1.44
P70752	1.14.13.111
P70805	5.1.3.37
P70826	2.7.1.90
P70947	3.1.3.104
P71016	1.2.1.8
P71063	2.3.1.203
P71119	1.14.14.18
P71276	2.7.7.49
P71447	5.4.2.6
P71517	1.21.98.4
P71534	1.1.1.36
P71778	3.5.2.6
P71864	1.3.99.4
P71875	1.14.15.30
P71889	3.5.3.18
P72065	5.6.2.2
P72097	2.4.3.6
P72156	3.8.1.8
P72197	3.4.22.47
P72449	1.3.99.39
P72578	1.2.7.11
P72579	1.2.7.11
P72656	3.1.26.12
P73276	2.7.13.3
P73335	3.1.1.96
P73574	1.1.1.100
P73726	2.5.1.115
P73735	1.6.5.12
P73826	1.1.1.36
P73860	2.7.11.1
P74132	1.3.98.3
P74165	2.4.1.336
P74167	5.1.3.34
P74199	2.7.13.3
P74258	2.4.1.213
P74285	2.7.7.9
P74308	1.1.1.184
P74312	1.6.5.2
P74388	2.1.1.295
P74503	2.7.11.1
P74646	2.7.11.1
P74653	2.7.1.182
P74721	1.1.1.2
P74879	2.7.2.15
P74918	2.7.7.7
P75063	1.1.3.21
P75430	6.3.3.2
P75436	2.1.1.72
P75713	3.5.3.26
P75728	1.14.99.60
P75745	3.5.2.9
P75746	3.5.2.9
P75782	2.1.1.181
P75796	7.4.2.10
P75809	3.1.3.104
P75825	1.7.99.1
P75849	3.1.2.6
P75897	3.5.1.110
P75898	1.14.99.46
P75908	2.7.7.65
P76014	2.7.1.121
P76015	2.7.1.121
P76041	2.4.1.352
P76085	6.2.1.30
P76097	1.13.11.93
P76113	1.3.1.n3
P76143	2.3.1.245
P76145	2.1.1.144
P76215	3.5.1.96
P76216	3.5.3.23
P76217	1.2.1.71
P76245	2.7.7.65
P76254	1.14.13.239
P76329	3.1.3.70
P76339	2.7.13.3
P76341	3.5.2.17
P76373	1.1.1.22
P76395	3.1.3.16
P76445	2.7.4.29
P76458	2.8.3.8
P76459	2.8.3.8
P76469	4.1.2.53
P76491	3.1.3.89
P76503	2.3.1.16
P76577	2.4.1.129
P76621	1.14.11.64
P76641	3.5.4.3
P77044	3.7.1.14
P77072	4.99.1.2
P77150	2.7.1.35
P77154	2.4.1.230
P77165	1.2.99.6
P77172	3.1.4.52
P77215	4.2.1.90
P77218	2.3.1.8
P77231	2.4.2.52
P77257	7.6.2.13
P77272	2.7.1.192
P77302	2.7.7.65
P77324	1.2.99.6
P77334	3.1.4.52
P77366	5.4.2.6
P77425	3.5.3.9
P77434	2.6.1.2
P77455	1.2.1.91
P77485	2.7.13.3
P77488	2.2.1.7
P77489	1.2.99.6
P77541	4.1.3.30
P77555	1.1.1.350
P77567	2.3.1.5
P77581	2.6.1.81
P77596	4.2.1.82
P77608	4.2.1.80
P77619	3.4.16.4
P77649	2.7.7.108
P77674	1.2.1.19
P77690	2.6.1.87
P77748	1.1.99.39
P77766	3.1.3.97
P77781	3.1.2.28
P77788	3.6.1.65
P77791	2.3.1.79
P77834	2.4.2.1
P77836	2.4.2.2
P77933	2.7.7.7
P77961	6.3.1.2
P77978	2.7.7.72
P77983	2.7.1.40
P78061	6.3.1.11
P80077	5.4.99.1
P80078	5.4.99.1
P80175	1.1.99.36
P80183	2.1.1.86
P80184	2.1.1.86
P80185	2.1.1.86
P80186	2.1.1.86
P80187	2.1.1.86
P80244	3.4.21.92
P80293	1.15.1.1
P80435	2.7.7.97
P80464	1.3.99.17
P80465	1.3.99.17
P80466	1.3.99.17
P80505	1.2.1.59
P80563	1.97.1.2
P80645	1.14.14.5
P80695	1.4.3.21
P80951	1.5.1.40
P81177	3.4.24.29
P81185	6.4.1.3
P81186	1.9.6.1
P81297	3.4.22.48
P81453	2.3.2.13
P81747	1.1.99.36
P81786	1.2.1.3
P82385	1.15.1.2
P82543	7.1.1.9
P82604	4.8.1.4
P82679	1.14.13.105
P82974	3.5.1.28
P83309	1.14.11.43
P83310	1.14.11.44
P83772	3.5.2.10
P83788	3.7.1.3
P83847	3.2.2.31
P86491	1.14.13.114
P86977	3.2.1.14
P94211	3.5.1.82
P94390	1.5.5.2
P94405	4.1.1.61
P94424	1.5.1.39
P94498	1.8.4.10
P94512	3.1.3.3
P94527	1.1.1.261
P94692	1.2.7.1
P95141	6.2.1.51
P95160	1.6.5.9
P95200	1.6.5.9
P95276	3.3.2.10
P95442	3.5.4.43
P95468	2.6.1.57
P95470	3.2.1.55
P95474	2.7.2.2
P95480	1.14.19.9
P95493	3.4.22.37
P95619	4.2.1.131
P95727	1.3.1.120
P95747	2.4.1.316
P95867	3.2.1.141
P95980	2.7.7.101
P96072	1.14.14.30
P96134	2.1.3.3
P96155	3.2.1.52
P96156	3.2.1.202
P96202	2.3.1.292
P96274	2.3.1.48
P96368	2.7.13.3
P96618	2.7.8.7
P96645	3.2.1.17
P96741	3.1.3.104
P96793	3.2.1.177
P96843	6.2.1.41
P96847	2.6.1.66
P96890	6.3.4.14
P97030	1.17.99.6
P97084	4.1.1.81
P9WF03	3.2.1.40
P9WFR9	2.1.1.45
P9WFU5	6.1.1.10
P9WG35	1.11.1.24
P9WG43	5.3.1.1
P9WG45	5.6.2.2
P9WG47	5.6.2.2
P9WG51	3.3.2.2
P9WG55	5.2.1.8
P9WG57	2.1.1.148
P9WG75	2.5.1.3
P9WGD7	3.6.5.4
P9WGD9	3.6.5.4
P9WGE7	1.15.1.1
P9WGG1	5.3.1.28
P9WGI7	2.1.2.1
P9WGI9	2.1.2.1
P9WGJ3	3.1.3.3
P9WGK1	2.7.13.3
P9WGK3	2.7.13.3
P9WGK7	2.7.13.3
P9WGL3	2.7.13.3
P9WGL5	2.7.13.3
P9WGR1	1.3.1.9
P9WGS9	1.1.1.333
P9WGT1	1.1.1.53
P9WGW1	3.6.4.12
P9WH11	5.1.3.13
P9WH13	2.7.7.24
P9WHH1	1.8.1.9
P9WHQ9	2.4.2.8
P9WHS1	3.13.1.6
P9WHV4	3.6.1.11
P9WHW3	5.2.1.8
P9WHW5	3.1.3.16
P9WI55	3.6.1.1
P9WI69	2.7.11.1
P9WI79	2.7.11.1
P9WIA1	3.1.3.48
P9WIA8	3.1.4.3
P9WIA9	3.1.4.3
P9WIB1	3.1.4.3
P9WIB2	3.1.4.3
P9WIB4	3.1.4.3
P9WIB9	5.4.99.5
P9WIC1	5.4.99.5
P9WIE3	1.11.1.29
P9WIE5	1.11.1.21
P9WIJ1	1.4.3.5
P9WIK3	1.8.4.10
P9WIK7	2.3.1.288
P9WIK9	2.3.1.283
P9WIL3	4.1.1.11
P9WIL5	6.3.2.1
P9WIN5	2.3.1.282
P9WIP3	2.5.1.74
P9WIQ1	5.4.99.9
P9WIQ3	1.18.1.2
P9WIS9	1.2.4.1
P9WIT9	2.1.3.3
P9WIY3	3.6.1.69
P9WJ03	1.8.7.1
P9WJ61	2.5.1.153
P9WJ93	1.14.15.30
P9WJA1	1.14.14.12
P9WJF1	1.1.98.3
P9WJI5	2.3.1.5
P9WJJ3	6.3.5.1
P9WJJ7	2.4.2.19
P9WK87	3.1.1.1
P9WKA5	2.3.1.20
P9WKA7	2.3.1.20
P9WKA9	2.3.1.20
P9WKB1	2.3.1.20
P9WKB5	2.3.1.20
P9WKB7	2.3.1.20
P9WKB9	2.3.1.20
P9WKC3	2.3.1.20
P9WKC5	2.3.1.20
P9WKC9	2.3.1.20
P9WKD1	3.4.16.4
P9WKD7	5.3.1.6
P9WKE1	2.7.4.9
P9WKE3	2.7.6.1
P9WKF7	1.14.13.59
P9WKF9	1.17.7.4
P9WKG1	1.17.7.4
P9WKH1	2.5.1.10
P9WKH3	1.14.99.57
P9WKI3	1.7.1.7
P9WKI7	1.1.1.205
P9WKJ5	4.2.1.9
P9WKJ7	1.1.1.86
P9WKK7	4.1.3.1
P9WKK9	1.1.1.85
P9WKL5	2.1.1.374
P9WKQ1	3.1.4.12
P9WKY5	2.3.1.48
P9WKZ1	1.14.11.77
P9WL45	1.3.98.5
P9WLG1	2.8.2.40
P9WM67	3.1.2.2
P9WMK7	1.16.3.1
P9WML9	4.2.1.19
P9WMN1	2.4.2.17
P9WMX3	2.4.1.287
P9WMZ1	2.4.1.342
P9WMZ5	2.4.1.345
P9WN03	2.4.2.46
P9WN21	3.1.3.11
P9WN69	5.3.1.9
P9WN83	1.2.1.12
P9WN93	4.2.1.2
P9WN99	2.4.1.129
P9WND1	2.5.1.15
P9WNE1	1.1.98.2
P9WNE3	4.99.1.9
P9WNE5	1.16.3.1
P9WNG3	2.3.1.301
P9WNP5	4.1.3.36
P9WNP7	1.1.1.157
P9WNS5	3.6.1.23
P9WNU7	6.3.1.19
P9WNU9	3.5.1.119
P9WNV3	6.5.1.1
P9WNV5	6.5.1.1
P9WNW7	1.13.11.25
P9WNW9	1.1.1.23
P9WNX5	1.2.1.11
P9WNY9	1.3.99.38
P9WNZ3	1.14.19.n4
P9WP17	3.5.4.30
P9WP19	5.1.1.7
P9WP21	2.3.1.117
P9WP28	2.7.1.107
P9WP31	6.3.2.4
P9WP35	7.1.1.8
P9WP37	7.1.1.8
P9WP53	2.5.1.113
P9WP55	2.5.1.47
P9WP81	2.7.8.28
P9WP83	2.7.7.105
P9WPA3	2.7.1.24
P9WPA5	2.7.7.3
P9WPB5	2.1.1.79
P9WPH3	3.5.4.5
P9WPJ7	4.2.1.1
P9WPJ9	4.2.1.1
P9WPK7	6.3.2.2
P9WPL5	1.14.15.28
P9WPN7	1.14.15.27
P9WPP7	1.14.19.70
P9WPP9	1.14.15.36
P9WPQ3	6.3.4.14
P9WPT5	7.2.2.22
P9WPU1	7.2.2.8
P9WPX5	3.5.1.1
P9WPY3	2.7.1.71
P9WPY5	2.5.1.19
P9WQ09	3.2.2.31
P9WQ35	4.6.1.1
P9WQ37	6.2.1.3
P9WQ41	6.2.1.47
P9WQ43	6.2.1.59
P9WQ47	6.2.1.57
P9WQ59	6.2.1.49
P9WQ71	2.8.1.7
P9WQ81	2.6.1.62
P9WQ91	2.6.1.2
P9WQA9	5.1.1.1
P9WQB1	1.4.1.1
P9WQB3	2.3.3.13
P9WQB7	1.11.1.28
P9WQD3	2.7.8.7
P9WQD7	2.3.1.294
P9WQD9	2.3.1.293
P9WQE1	2.3.1.292
P9WQE3	2.3.1.292
P9WQE5	2.3.1.292
P9WQE7	2.3.1.292
P9WQE9	2.3.1.287
P9WQH5	2.1.3.15
P9WQH7	2.1.3.15
Q00441	1.14.15.35
Q00456	1.14.13.236
Q00457	1.14.13.236
Q00460	1.14.13.236
Q00496	3.4.24.69
Q00512	7.4.2.8
Q00594	6.2.1.2
Q00924	5.1.99.5
Q01331	5.5.1.19
Q01468	5.3.2.6
Q01578	3.1.1.17
Q01693	3.4.11.10
Q01911	1.14.13.231
Q02047	2.1.3.3
Q02138	1.1.1.86
Q02169	3.6.1.9
Q02251	2.3.1.111
Q02394	1.12.98.2
Q02499	2.7.1.40
Q02550	1.1.98.7
Q02603	3.2.1.23
Q02604	3.2.1.23
Q02834	3.2.1.18
Q03055	2.1.1.72
Q03084	2.4.1.303
Q03131	2.3.1.94
Q03132	2.3.1.94
Q03133	2.3.1.94
Q03304	1.18.1.3
Q03469	5.1.1.3
Q03520	1.21.4.5
Q03524	3.4.16.4
Q03V79	2.3.1.31
Q04507	1.14.99.39
Q04508	1.14.99.39
Q04616	1.3.99.4
Q04845	2.1.1.113
Q05354	5.3.3.10
Q05514	4.3.1.2
Q05603	2.4.2.21
Q05741	1.8.1.9
Q05755	1.4.1.13
Q05852	2.7.7.9
Q06067	2.7.13.3
Q06115	3.5.1.24
Q06121	4.1.1.48
Q06128	4.1.3.27
Q06129	4.1.3.27
Q06191	2.6.1.1
Q06241	3.4.13.22
Q06277	2.7.7.108
Q06539	1.4.1.23
Q06700	7.2.4.5
Q06749	4.2.2.3
Q06904	2.7.13.3
Q06953	2.6.1.102
Q07606	3.1.21.4
Q07841	1.1.1.37
Q07868	3.4.16.4
Q07982	1.1.99.28
Q07WU7	1.3.5.1
Q08015	1.14.99.69
Q08352	1.4.1.1
Q08751	3.2.1.135
Q08IB7	1.2.1.26
Q08IC0	1.2.1.26
Q08IS0	2.8.5.2
Q08VU0	4.2.3.155
Q09KQ6	3.5.99.11
Q09LX1	3.1.1.72
Q0AV19	1.1.1.383
Q0AVA8	1.3.8.1
Q0AVM1	4.2.1.150
Q0AVM2	1.1.1.35
Q0AVM3	2.3.1.9
Q0AVM4	1.3.8.1
Q0B950	4.2.1.77
Q0B953	1.5.1.49
Q0B9R9	5.1.1.8
Q0B9S2	1.5.1.49
Q0BGE1	3.1.1.120
Q0BX37	2.3.1.31
Q0FPQ4	5.1.1.22
Q0I1Q0	1.17.99.6
Q0K4F5	1.1.1.408
Q0K4F6	2.7.1.219
Q0K845	1.2.1.81
Q0KBC7	1.1.1.411
Q0KBC8	2.7.1.217
Q0KBC9	4.1.1.104
Q0KBD1	5.3.1.35
Q0KBD2	1.1.1.410
Q0MRG5	3.1.1.113
Q0P887	7.3.2.6
Q0P8H3	1.1.1.22
Q0P8I9	2.7.1.168
Q0P8J1	2.7.7.71
Q0P8J6	2.7.3.13
Q0P8J7	3.5.1.129
Q0P8J8	2.7.7.103
Q0P8J9	2.7.1.224
Q0P8W3	2.6.1.92
Q0P9C4	7.5.2.5
Q0P9C5	2.4.1.292
Q0QFQ2	1.13.11.4
Q0QFQ3	3.7.1.23
Q0S7M1	1.14.15.29
Q0S7V5	6.2.1.41
Q0SFL5	1.14.13.220
Q0SFL6	4.1.1.103
Q0SJK7	1.14.13.227
Q0SJK9	1.14.13.227
Q0TR53	3.2.1.169
Q0TTH1	1.8.98.7
Q0ZIH5	1.14.14.21
Q0ZIH7	1.14.14.22
Q0ZQ46	2.3.3.19
Q12A06	3.1.3.3
Q12BV1	4.1.1.103
Q12XS2	2.3.1.31
Q12XX4	2.4.1.266
Q13PC1	3.13.1.4
Q146L7	5.4.99.13
Q15JF8	3.1.3.101
Q15JG1	2.5.1.135
Q15JG4	2.7.7.91
Q15JG7	1.14.11.52
Q15RG1	2.3.1.46
Q15SS0	1.1.1.127
Q15SS1	1.1.1.389
Q15UF1	2.7.1.45
Q15X88	4.1.2.14
Q168G2	6.4.1.3
Q183R7	3.4.24.89
Q18T09	2.6.1.83
Q1AS69	2.1.3.16
Q1EPR4	3.5.1.117
Q1EPR5	3.5.1.117
Q1GNW5	1.14.11.55
Q1IAK8	6.2.1.61
Q1IAL0	6.2.1.70
Q1J115	2.3.1.31
Q1JU72	3.8.1.3
Q1JUP4	1.2.1.26
Q1JZW3	4.1.99.23
Q1LRY0	5.4.99.13
Q1M7F3	3.5.2.15
Q1M7F4	3.5.1.84
Q1MGQ9	2.7.8.24
Q1MLL4	1.1.1.16
Q1NEI6	1.1.1.401
Q1PW30	1.7.2.8
Q1PX48	1.7.2.9
Q1Q0T2	1.7.2.7
Q1Q0T3	1.7.2.7
Q1QBF3	5.1.1.8
Q1QU06	5.1.1.8
Q1QV19	5.1.1.8
Q1QWP0	4.4.1.24
Q1QWP1	4.4.1.24
Q1QYU6	1.14.13.251
Q1QYU7	1.14.13.251
Q1QYW1	1.5.7.3
Q1R415	2.7.1.5
Q1V023	1.14.13.148
Q21A54	2.3.1.222
Q21FJ0	4.2.2.26
Q21YU0	3.1.3.3
Q24SP6	2.1.1.378
Q24SP7	2.1.1.376
Q25QU7	1.1.1.37
Q2CEE3	3.2.1.169
Q2EMT4	2.4.99.21
Q2FHP2	3.4.23.36
Q2FUA9	6.3.2.36
Q2FV59	2.5.1.96
Q2FV99	3.4.22.70
Q2FVX9	4.6.1.17
Q2FW70	6.3.2.58
Q2FW72	6.3.2.57
Q2FWH4	6.3.2.10
Q2FX77	3.5.1.28
Q2FXA4	4.99.1.9
Q2FXA5	1.3.3.15
Q2FXG9	2.1.1.61
Q2FXJ0	6.3.2.8
Q2FXM8	2.7.1.11
Q2FYD8	3.5.1.28
Q2FYQ7	7.2.2.11
Q2FYQ8	7.2.2.11
Q2FZ92	6.3.2.9
Q2FZ93	2.7.8.13
Q2FZE2	1.14.99.48
Q2FZE3	3.4.22.71
Q2FZP6	6.3.2.7
Q2FZV7	1.6.5.9
Q2G0D4	3.5.1.28
Q2G0J1	1.3.98.5
Q2G160	4.1.3.3
Q2G1B8	2.7.8.14
Q2G1B9	1.1.1.405
Q2G1C0	2.7.7.40
Q2G1C1	2.7.8.45
Q2G1C2	2.7.8.14
Q2G1C4	1.1.1.405
Q2G1J2	1.14.99.48
Q2G1M5	2.7.1.225
Q2G1M6	4.1.1.117
Q2G1M8	6.3.2.55
Q2G1M9	6.3.2.54
Q2G1N1	6.3.2.56
Q2G1N2	1.5.1.51
Q2G1N3	2.5.1.140
Q2G261	1.15.1.1
Q2G278	3.5.1.28
Q2G297	3.6.1.41
Q2G2C4	2.7.7.40
Q2G2L3	2.4.1.187
Q2G2X2	2.7.7.39
Q2G2X4	2.7.8.44
Q2G5J3	1.1.1.432
Q2G5J4	1.14.14.181
Q2GAJ2	2.3.1.31
Q2JZQ0	4.1.1.121
Q2KD13	5.1.1.8
Q2LQN9	1.3.8.10
Q2LQP0	1.3.8.11
Q2LTE1	2.3.3.3
Q2LXU2	3.7.1.21
Q2NGH9	2.3.1.31
Q2P5V2	6.3.2.53
Q2PWU9	1.14.13.210
Q2RGM7	3.5.2.15
Q2RI40	1.2.7.10
Q2RI41	1.2.7.10
Q2RI42	1.2.7.10
Q2RIS7	7.2.3.1
Q2RK33	2.6.1.83
Q2RMD6	1.2.7.1
Q2RMZ4	1.14.13.240
Q2RNK3	1.14.99.60
Q2RQ36	4.2.1.119
Q2RSB2	7.1.1.1
Q2RSB4	7.1.1.1
Q2RSU5	2.8.4.6
Q2RSU7	5.3.3.23
Q2RVS1	1.16.3.1
Q2RXH9	2.4.2.28
Q2RXI0	5.3.1.23
Q2RXI1	4.1.2.62
Q2S5A6	2.3.1.31
Q2SYI1	1.1.1.133
Q2T284	2.3.1.46
Q2T3J4	5.1.1.8
Q2TDY4	1.14.11.55
Q2YIQ1	2.7.1.215
Q2YIQ2	1.1.1.402
Q2YIQ3	5.1.3.38
Q2YIQ6	5.3.1.33
Q2YKV1	2.5.1.78
Q2YN92	2.5.1.9
Q2YNC6	2.5.1.78
Q2YNY9	2.3.2.30
Q2YQS9	2.3.1.270
Q30W70	4.3.99.4
Q30WH3	4.1.1.111
Q30Y72	4.1.1.111
Q30Y73	1.3.98.6
Q31HD6	4.2.1.1
Q31HD9	4.1.1.39
Q31IK0	4.1.1.39
Q31KC7	2.7.1.47
Q31NB3	4.1.1.39
Q331Q7	1.1.1.364
Q331R1	5.1.3.27
Q38HX3	4.1.1.83
Q38HX4	4.1.1.83
Q38M35	3.5.99.5
Q396C5	1.10.3.16
Q39TV7	3.7.1.21
Q3AFC6	7.1.3.1
Q3C1D2	1.14.12.15
Q3C1D4	1.14.12.15
Q3C1D5	1.14.12.15
Q3C1E0	1.14.12.15
Q3C1E2	1.14.12.15
Q3C1E3	1.14.12.15
Q3IHM8	2.3.1.46
Q3IUE8	2.3.1.31
Q3IWG2	5.1.1.8
Q3IZ90	5.4.99.63
Q3IZ91	1.3.1.85
Q3IZP4	5.1.99.1
Q3J205	2.3.1.31
Q3J4D7	5.4.99.2
Q3J4E3	6.4.1.3
Q3J7P0	2.3.1.46
Q3JHA9	5.1.1.8
Q3K9A2	1.5.1.42
Q3KC85	1.14.14.35
Q3M5Q6	2.3.1.31
Q3M5Z3	4.3.1.24
Q3M6C3	4.2.3.154
Q3MB01	2.4.1.336
Q3S8P6	2.1.1.335
Q3S8R0	1.14.13.232
Q3SM51	2.3.1.46
Q3T6E2	2.7.1.214
Q3V5W6	6.3.1.2
Q3YAT3	1.1.1.400
Q3YAT5	1.2.1.98
Q3YW59	7.2.2.12
Q3Z8V0	1.17.99.6
Q43899	2.3.1.82
Q44057	2.3.1.82
Q44185	3.5.1.77
Q44244	4.2.1.113
Q44245	2.3.1.82
Q44249	6.3.1.18
Q44297	1.5.1.28
Q44493	5.1.3.37
Q44494	5.1.3.37
Q44495	5.1.3.37
Q44532	1.18.1.2
Q45374	2.4.99.12
Q45399	2.7.1.205
Q45488	3.1.21.4
Q45614	2.7.13.3
Q45692	1.18.1.3
Q45695	1.14.12.24
Q45894	3.4.24.69
Q46085	3.4.24.3
Q46444	1.1.9.1
Q46505	1.12.1.3
Q46506	1.12.1.3
Q46507	1.12.1.3
Q46508	1.12.1.3
Q46509	1.2.99.7
Q46666	2.7.7.49
Q46822	5.3.3.2
Q46856	1.1.1.2
Q46948	3.5.1.124
Q46A52	2.1.2.1
Q46AN5	6.1.1.11
Q46CH5	4.1.1.111
Q46CH6	4.1.1.111
Q46CH7	1.3.98.6
Q46E79	6.3.2.59
Q46FL0	6.3.5.12
Q46FL1	6.3.3.7
Q46FL2	6.3.3.7
Q46FL3	6.4.1.9
Q46N53	1.1.1.308
Q471I2	1.14.14.173
Q47317	2.3.1.102
Q47319	2.5.1.25
Q47474	3.1.1.11
Q47526	2.7.7.49
Q47910	7.2.2.10
Q47914	1.1.1.404
Q47945	1.1.5.5
Q47N06	3.2.1.39
Q47Q21	4.2.1.113
Q48252	7.4.2.8
Q485R8	1.5.1.49
Q485S0	4.2.1.77
Q48796	4.1.1.101
Q48943	1.2.7.12
Q48MT7	1.6.3.5
Q48PB0	2.7.1.217
Q49115	5.4.99.63
Q49118	2.3.1.101
Q49156	2.7.2.16
Q49400	2.1.1.72
Q49610	2.3.1.101
Q4FL37	7.6.2.9
Q4J6H1	2.3.3.21
Q4J7W0	3.2.1.28
Q4J989	2.3.3.14
Q4J9D4	3.2.1.28
Q4J9K4	2.7.11.1
Q4JA78	2.3.3.13
Q4JAE8	2.7.7.6
Q4JAJ6	2.7.7.6
Q4JAP9	6.3.2.43
Q4JAY4	2.7.7.6
Q4JB12	2.7.7.6
Q4JBJ3	3.13.1.1
Q4JC35	4.1.2.55
Q4K418	2.3.1.253
Q4K423	3.7.1.24
Q4KBD3	2.7.1.217
Q4KCY5	6.2.1.53
Q4KCY6	1.3.8.14
Q4KCZ0	1.14.19.56
Q4KGT8	1.5.1.49
Q4KGU2	5.1.1.8
Q4KXC9	2.4.1.122
Q4L332	4.4.1.13
Q4PNI0	1.13.11.63
Q4VFY5	1.14.11.58
Q4VKU9	1.14.99.44
Q4VKV0	1.2.99.10
Q4VKV1	1.3.8.2
Q4W6G0	1.1.9.1
Q4W7T3	4.8.1.2
Q4ZMV1	4.1.2.4
Q4ZZ78	2.3.1.46
Q50290	2.1.1.72
Q50497	1.5.3.22
Q50539	2.1.1.245
Q50744	1.5.98.2
Q50754	1.8.98.5
Q50755	1.8.98.5
Q50756	1.8.98.5
Q50773	2.1.1.86
Q50774	2.1.1.86
Q50837	3.5.4.19
Q51371	5.1.3.37
Q51404	4.2.1.2
Q51424	3.1.21.10
Q51548	1.14.13.195
Q51567	6.2.1.5
Q51574	3.5.2.6
Q51645	3.8.1.2
Q51669	4.4.1.22
Q51732	3.5.1.124
Q51790	3.3.2.15
Q51792	5.3.3.17
Q51793	1.10.3.16
Q51817	3.4.22.47
Q51973	1.18.1.3
Q51974	1.14.12.25
Q52008	1.13.11.43
Q52060	1.2.1.10
Q52078	1.2.98.1
Q52087	3.8.1.2
Q52126	1.18.1.7
Q52400	6.2.1.70
Q52424	2.3.1.59
Q52463	2.4.1.33
Q52472	1.1.1.122
Q52VH2	3.4.11.25
Q53122	1.14.12.18
Q53123	1.14.12.18
Q53176	1.9.6.1
Q53353	1.13.11.43
Q53389	3.5.1.87
Q53464	3.8.1.2
Q53547	3.1.1.1
Q53591	4.2.2.1
Q53638	6.1.1.6
Q53692	1.10.3.4
Q53705	2.7.13.3
Q53726	2.5.1.n9
Q53728	3.1.4.4
Q540U1	3.1.3.2
Q54240	2.3.1.233
Q54441	2.3.1.82
Q54468	3.2.1.52
Q54735	4.2.1.1
Q54794	1.14.19.6
Q54873	4.2.2.1
Q55012	4.2.3.7
Q55034	3.1.3.69
Q55088	3.2.1.141
Q55128	2.6.1.1
Q55276	5.5.1.19
Q55320	3.1.3.1
Q55389	1.8.7.2
Q55500	2.5.1.39
Q55650	2.6.1.121
Q55804	3.6.4.13
Q55828	2.6.1.83
Q56062	4.1.3.30
Q56184	2.1.1.308
Q56185	1.11.1.23
Q56214	3.6.4.12
Q56268	1.1.1.85
Q56308	2.1.1.77
Q56310	2.7.13.3
Q56313	3.6.4.12
Q56320	5.3.1.24
Q56416	2.7.1.24
Q56575	4.1.1.96
Q56582	7.2.1.1
Q56584	7.2.1.1
Q56586	7.2.1.1
Q56587	7.2.1.1
Q56589	7.2.1.1
Q56691	1.5.1.38
Q56724	7.2.4.3
Q56815	4.1.2.13
Q56837	4.4.1.23
Q56839	1.8.1.5
Q56840	1.1.1.268
Q56841	1.1.1.269
Q56S04	1.1.1.25
Q57071	2.7.1.199
Q57079	7.2.4.3
Q57095	7.2.1.1
Q57111	7.2.4.3
Q57146	2.3.1.183
Q57151	5.3.1.35
Q57168	2.1.1.72
Q57199	4.1.1.104
Q57286	7.2.4.3
Q57399	7.3.2.5
Q57490	7.2.4.3
Q57549	1.11.1.24
Q57661	1.5.99.15
Q57679	3.6.1.66
Q57757	3.5.3.11
Q57764	4.1.1.19
Q57815	5.6.2.2
Q57842	5.4.2.8
Q57851	4.1.2.25
Q57872	3.5.4.30
Q57880	2.1.1.256
Q57888	4.3.1.32
Q57900	2.7.4.31
Q57926	2.3.3.14
Q58010	6.2.1.13
Q58018	2.4.2.59
Q58097	2.6.1.108
Q58134	4.2.99.18
Q58250	2.5.1.131
Q58280	1.8.98.3
Q58293	2.1.1.228
Q58297	2.7.7.68
Q58327	2.7.1.23
Q58409	4.2.1.114
Q58428	2.6.1.97
Q58431	4.4.1.28
Q58484	1.1.1.25
Q58497	4.1.1.20
Q58499	4.2.3.153
Q58502	3.6.1.23
Q58504	2.7.1.39
Q58579	2.7.7.2
Q58667	4.2.1.114
Q58761	2.7.6.1
Q58783	3.13.1.9
Q58786	2.6.1.83
Q58813	4.1.2.17
Q58819	4.6.1.16
Q58822	2.4.2.54
Q58826	2.5.1.147
Q58842	4.1.2.43
Q58923	5.3.1.1
Q58924	2.1.1.63
Q58989	3.1.3.3
Q58991	1.1.1.87
Q58PK7	1.14.13.38
Q58Y43	4.4.1.24
Q58Y44	4.4.1.24
Q58YV9	2.4.1.308
Q59028	2.7.6.3
Q59045	3.13.2.3
Q59104	1.1.1.61
Q59109	1.8.99.5
Q59110	1.8.99.5
Q59224	1.4.1.20
Q59288	4.2.2.5
Q59321	6.3.4.2
Q59385	7.2.2.8
Q59490	1.17.4.2
Q59533	5.6.2.2
Q59544	3.1.3.2
Q59584	2.1.1.86
Q59636	2.7.4.6
Q59643	4.2.1.24
Q59645	1.1.1.27
Q59701	4.3.1.12
Q59702	1.2.1.96
Q59723	1.14.14.84
Q59771	1.4.1.20
Q59803	4.2.3.5
Q59931	1.2.1.9
Q59961	5.6.2.2
Q59971	1.14.13.181
Q59I44	1.3.1.103
Q5E1G4	1.1.1.17
Q5E5Y7	4.1.1.15
Q5E6F9	4.1.1.11
Q5F8J4	1.1.1.3
Q5FA46	1.1.1.4
Q5FPE5	1.1.1.119
Q5FQ97	2.7.1.12
Q5FTU6	1.1.1.215
Q5FUK8	1.1.1.49
Q5HLM5	2.7.8.12
Q5HNV1	1.1.1.25
Q5HTX9	2.4.99.19
Q5IW36	2.7.7.93
Q5IW40	1.13.11.72
Q5J1R2	5.1.1.14
Q5JBG6	2.4.1.309
Q5JCX3	2.4.2.57
Q5JCY6	2.1.2.11
Q5JD03	2.7.1.226
Q5JDG9	2.7.1.212
Q5JDU3	3.5.99.6
Q5JDY1	2.5.1.41
Q5JE39	2.7.1.147
Q5JEK6	2.7.1.213
Q5JFM9	5.3.1.29
Q5JGC2	1.1.1.169
Q5JGG6	5.1.1.2
Q5JHF1	2.7.1.169
Q5JI69	1.1.1.103
Q5JIY7	2.7.1.237
Q5JIZ3	2.5.1.128
Q5JIZ5	3.4.21.62
Q5JIZ8	6.3.2.36
Q5JJ82	4.1.1.11
Q5KSN4	4.2.3.31
Q5KSN5	5.5.1.13
Q5KUG0	5.4.99.13
Q5KW03	4.2.1.1
Q5L1G9	4.2.1.113
Q5L2C2	1.4.3.19
Q5L3C1	2.5.1.n9
Q5LA59	1.1.1.159
Q5LHS7	2.3.1.31
Q5LIC7	3.2.1.31
Q5LKW0	1.8.3.4
Q5LKW3	5.1.1.8
Q5LL69	4.4.1.25
Q5LLW6	4.2.1.155
Q5LRT0	6.2.1.44
Q5LS57	2.1.1.269
Q5LSN6	2.3.1.31
Q5LT52	4.1.2.32
Q5LT63	1.14.13.148
Q5LT65	7.6.2.9
Q5LUF3	6.4.1.3
Q5LW89	4.4.1.3
Q5M2B1	3.6.4.12
Q5M3B3	3.1.3.3
Q5NHL7	3.5.1.20
Q5NNZ8	3.1.3.1
Q5NP65	1.17.8.1
Q5NP67	4.2.3.156
Q5P5Z3	2.8.3.28
Q5P5Z9	1.3.3.17
Q5P603	6.2.1.75
Q5PXQ6	1.13.11.37
Q5QXU4	3.1.3.3
Q5S260	3.5.1.77
Q5S3I1	1.18.1.3
Q5S3I2	1.18.1.3
Q5SFA6	1.1.1.364
Q5SFD1	5.1.3.27
Q5SH23	6.3.2.43
Q5SHW0	4.4.1.13
Q5SIA8	6.3.4.2
Q5SII2	2.1.1.178
Q5SIP0	6.3.1.2
Q5SIT4	2.1.1.191
Q5SJ79	7.1.1.9
Q5SJ80	7.1.1.9
Q5SJA1	1.1.1.27
Q5SJC4	3.1.21.10
Q5SJP7	1.5.1.36
Q5SJX8	4.2.1.113
Q5SK01	2.1.1.176
Q5SKC5	3.2.2.27
Q5SKN9	6.2.1.3
Q5SL87	3.6.4.12
Q5SLF5	3.13.2.3
Q5SM28	6.1.1.15
Q5U923	4.2.1.157
Q5U924	4.2.1.157
Q5UY95	1.1.1.424
Q5V464	4.2.1.148
Q5V468	2.8.3.26
Q5W251	2.2.1.12
Q5W263	6.2.1.53
Q5W271	1.3.8.14
Q5XC60	1.6.3.4
Q5XW77	1.7.1.16
Q5Y818	1.20.99.1
Q5YTV5	1.14.13.211
Q5YXQ1	5.2.1.1
Q5Z110	5.4.99.13
Q5ZND2	3.1.21.5
Q5ZTK4	2.4.2.31
Q5ZU17	3.3.2.2
Q5ZV56	2.7.8.24
Q5ZWR1	7.2.2.8
Q5ZYX7	2.4.2.31
Q5ZZ30	2.4.2.31
Q60053	3.2.1.135
Q60099	3.8.1.2
Q60103	2.2.1.1
Q60176	1.1.1.375
Q60182	6.3.1.2
Q60346	5.4.99.25
Q60364	4.1.99.12
Q60393	3.4.24.69
Q606Y5	2.3.1.46
Q60A55	1.14.13.246
Q60FX6	4.1.1.103
Q60GU1	4.1.1.103
Q63FA5	1.5.1.49
Q63KH5	3.5.1.44
Q64HC5	4.4.1.13
Q65JC2	2.4.1.384
Q65YW9	1.14.14.35
Q6ARP5	4.2.1.113
Q6BEX0	7.5.2.9
Q6CZ23	5.3.1.35
Q6CZ24	4.1.1.104
Q6CZ25	2.7.1.217
Q6CZ26	1.1.1.411
Q6D0N7	2.7.1.219
Q6D0N8	1.1.1.408
Q6D5T7	5.3.1.36
Q6D5T8	2.7.1.233
Q6D8V3	1.1.1.421
Q6D8V4	4.1.1.120
Q6D8V5	5.3.1.33
Q6D8V6	2.7.1.209
Q6D8V9	5.3.1.34
Q6DLR9	1.7.1.16
Q6DTN4	3.5.1.87
Q6E7F4	4.2.1.46
Q6F3I7	3.4.14.5
Q6F494	4.1.1.32
Q6F4N1	3.5.1.136
Q6F6U3	3.5.1.19
Q6F6W1	6.3.4.21
Q6F6Y2	1.14.13.113
Q6F8K4	6.3.5.1
Q6F9F5	1.5.1.36
Q6F9G0	1.2.1.24
Q6FDK2	2.4.2.12
Q6FEQ3	2.3.1.46
Q6G2A9	2.7.7.108
Q6GEY1	3.5.99.2
Q6GFF9	2.7.1.107
Q6GHT5	5.1.1.3
Q6GIL8	1.2.1.12
Q6H941	1.14.15.3
Q6HMS8	1.5.1.49
Q6HMS9	4.2.1.77
Q6I7B6	5.4.2.7
Q6KZ25	2.7.1.165
Q6KZB1	2.7.1.185
Q6L1T9	4.1.1.110
Q6L285	1.2.1.89
Q6LWM0	4.1.1.79
Q6LX40	1.4.1.1
Q6LYX3	2.3.1.264
Q6LZM9	2.9.1.2
Q6M0B9	1.1.1.374
Q6MDE0	2.6.1.83
Q6MQC7	4.2.1.113
Q6N2R1	3.1.3.82
Q6N3F1	4.2.3.156
Q6N3F2	2.5.1.103
Q6N3F3	1.17.8.1
Q6N3Y0	2.1.1.137
Q6N8N2	1.14.99.15
Q6NAM1	3.8.1.3
Q6NCZ6	2.3.1.229
Q6Q0M6	1.5.1.42
Q6Q271	1.5.1.36
Q6Q272	1.14.14.9
Q6RKB1	1.2.1.30
Q6STM1	1.14.14.108
Q6TG07	3.1.3.83
Q6TMA3	1.1.1.245
Q6TMG4	5.1.99.5
Q6TNA5	6.2.1.46
Q6TNA6	2.3.2.28
Q6WRT6	1.7.99.1
Q6XBH1	3.1.4.46
Q6XGD4	3.1.1.32
Q6YP15	3.1.1.29
Q6YRW7	1.20.4.1
Q6ZEM6	1.20.4.1
Q700X4	1.14.11.43
Q70GK9	2.5.1.63
Q70KH9	1.14.99.68
Q70XJ9	2.4.1.10
Q715L4	3.7.1.4
Q71EW5	4.2.1.112
Q725I2	4.1.1.111
Q727N1	4.4.1.38
Q727P3	1.17.2.3
Q72DS4	1.3.98.6
Q72DS5	4.1.1.111
Q72EF3	1.7.2.2
Q72GI1	2.1.1.34
Q72H00	3.1.3.3
Q72HA9	2.7.2.8
Q72IB8	1.5.5.2
Q72IH5	2.1.1.256
Q72IW9	1.1.1.286
Q72KH8	3.1.21.2
Q72LF3	2.8.1.15
Q72NJ3	2.6.1.83
Q72V44	3.5.4.46
Q72X44	2.3.1.31
Q73CR9	1.5.1.49
Q73CS0	4.2.1.77
Q73PV9	4.1.1.21
Q73Q47	1.3.1.44
Q73RG3	2.7.7.65
Q73WU1	2.4.1.266
Q74C76	2.3.3.21
Q74K42	2.4.1.9
Q74NE4	2.1.1.228
Q75SP7	3.5.1.100
Q75UV1	3.6.1.61
Q768T3	1.14.13.227
Q768T5	1.14.13.227
Q76EC9	4.2.2.2
Q76EV4	4.8.1.2
Q76HM5	3.4.11.4
Q76HM7	3.4.11.4
Q76K71	4.8.1.2
Q76KX0	3.5.1.101
Q79EM7	1.2.1.78
Q79F14	3.1.1.3
Q79F77	3.5.1.117
Q79FR5	3.1.1.6
Q79FW5	5.4.2.12
Q79PF4	2.7.11.1
Q79V60	2.7.11.1
Q79VE9	7.1.1.8
Q79VI4	2.5.1.49
Q7A2T0	3.1.1.103
Q7APG1	2.3.1.270
Q7ARI8	7.4.2.8
Q7BJX9	5.1.3.7
Q7BQ71	6.2.1.72
Q7BSH1	5.1.3.32
Q7CHH5	5.4.99.5
Q7CP78	3.5.99.10
Q7CRQ0	1.1.1.203
Q7CS24	1.5.1.42
Q7CVK1	1.5.1.49
Q7CWE8	2.3.1.31
Q7DBA7	4.1.1.61
Q7DBF3	2.6.1.102
Q7DBF7	2.3.1.227
Q7DDR9	2.7.7.108
Q7LX22	3.2.2.29
Q7LXU6	2.7.8.39
Q7M537	2.7.1.147
Q7M7U5	3.1.3.3
Q7MGG3	3.5.4.25
Q7MX71	4.4.1.11
Q7NSA6	4.1.1.4
Q7NU77	5.1.1.8
Q7NXD4	3.1.3.97
Q7SIF3	1.20.9.1
Q7SIF4	1.20.9.1
Q7TTT8	4.2.1.1
Q7TXK7	6.2.1.50
Q7U0E1	2.4.1.266
Q7U4Z8	2.1.1.156
Q7U4Z9	2.1.1.161
Q7UG04	2.3.1.31
Q7V2C7	4.2.1.1
Q7V2D0	4.1.1.39
Q7V6G1	4.2.1.1
Q7VYQ1	1.17.99.6
Q7WD07	3.1.1.77
Q7WSJ4	4.8.1.2
Q7WT72	1.3.99.27
Q7WTU0	1.20.99.1
Q7WY77	3.5.2.9
Q7WYA8	3.5.2.6
Q7X279	6.2.1.65
Q7X281	1.14.13.209
Q7X284	1.13.11.4
Q7X2C7	1.21.98.3
Q7ZAG8	1.8.5.4
Q814M3	2.3.1.31
Q819Q0	6.3.2.13
Q81AF4	3.5.1.104
Q81BJ6	3.4.24.3
Q81CK1	3.5.1.9
Q81EJ6	3.5.1.104
Q81EK9	3.5.1.104
Q81G39	6.2.1.54
Q81HB0	1.5.1.49
Q81HB1	4.2.1.77
Q81L50	1.14.14.18
Q81PP9	3.5.1.9
Q81RQ4	4.2.1.118
Q81RQ7	6.2.1.62
Q81WF0	3.5.2.3
Q81X77	5.4.2.12
Q820M5	2.4.1.13
Q829W3	1.2.1.12
Q82DR2	2.6.1.1
Q82HS2	1.1.1.37
Q82IY3	1.14.15.32
Q82IZ2	1.2.1.12
Q82P90	3.2.1.55
Q82PP4	3.2.1.40
Q831B2	1.7.1.17
Q833J1	3.2.2.6
Q836J0	5.1.1.3
Q837U5	3.5.3.12
Q837U7	2.1.3.6
Q838J7	4.2.1.113
Q838S1	1.14.99.53
Q838S2	3.2.1.14
Q83WC3	2.1.1.157
Q83WC4	2.1.1.156
Q83WC8	3.1.1.35
Q83WF2	2.1.1.238
Q83XD3	2.7.4.33
Q845S9	1.5.1.42
Q848J2	1.21.99.5
Q84BV2	3.4.11.4
Q84BZ2	1.14.12.1
Q84BZ3	1.14.12.1
Q84CG1	4.2.1.145
Q84F15	4.1.1.83
Q84F16	4.1.1.83
Q84F83	2.7.3.9
Q84FH6	5.4.99.5
Q84GJ3	1.17.7.3
Q84H44	2.3.3.15
Q84HB6	1.14.15.31
Q84HC5	6.2.1.43
Q84HC6	2.3.1.237
Q84HC8	2.1.1.303
Q84HH6	4.1.2.44
Q877I0	4.1.2.4
Q87NI7	3.1.4.52
Q87P32	2.7.7.108
Q883R9	3.1.3.3
Q886D9	2.7.4.33
Q887Q3	5.1.3.37
Q888H1	1.1.1.203
Q88CB2	5.1.1.1
Q88CC1	1.13.11.93
Q88CT3	2.3.1.46
Q88FF8	1.6.5.2
Q88FI7	2.6.1.39
Q88FY2	1.14.13.114
Q88GJ9	5.1.1.10
Q88H32	4.3.1.12
Q88IU0	1.14.11.64
Q88JU3	4.2.1.118
Q88JX9	4.1.3.17
Q88KV1	1.14.99.69
Q88M11	3.1.3.105
Q88NF3	5.1.1.8
Q88NN6	1.1.1.203
Q88Q83	1.4.3.19
Q88QT2	2.7.7.99
Q88QT3	2.7.1.221
Q88RA3	1.14.11.17
Q88RS0	3.1.3.82
Q899Y1	3.4.24.3
Q89E06	3.5.2.15
Q89FH0	4.2.1.81
Q89I98	2.1.1.334
Q89LF9	2.7.8.24
Q89V40	2.1.1.334
Q89ZI2	3.2.1.169
Q8A1G3	3.2.1.1
Q8A712	3.1.3.103
Q8A7J8	5.5.1.4
Q8A7J9	3.1.3.64
Q8A8Y4	2.4.1.320
Q8A945	1.1.1.102
Q8A947	3.1.3.104
Q8A9E5	2.3.1.50
Q8ABA7	3.1.3.15
Q8CJM2	2.1.1.72
Q8CM25	1.10.3.9
Q8CWR6	2.4.1.337
Q8CWX6	2.1.1.14
Q8D8D2	4.1.1.96
Q8DAR7	2.3.2.29
Q8DF91	3.1.1.1
Q8DIS5	4.1.1.39
Q8DJP8	4.2.1.113
Q8DK23	2.4.1.13
Q8DK70	1.17.7.1
Q8DKB5	4.2.1.1
Q8DMT2	2.7.13.3
Q8DNE6	2.7.7.3
Q8DNY1	2.3.1.n4
Q8DNZ9	6.3.5.13
Q8DP63	3.5.1.104
Q8DPI2	2.7.7.40
Q8DPI3	1.1.1.405
Q8DPQ3	3.1.3.5
Q8DR60	3.2.1.97
Q8DRN3	2.3.1.274
Q8DTM1	2.6.1.14
Q8DW88	1.3.99.33
Q8E0N2	3.2.1.31
Q8E9K5	2.7.7.108
Q8EAC7	1.7.2.2
Q8ECH7	2.7.7.108
Q8EEA9	2.7.7.90
Q8EEB0	1.1.3.48
Q8EEB1	2.6.1.109
Q8EGF8	2.7.7.65
Q8EIX3	2.7.11.1
Q8EMJ9	4.2.1.158
Q8F3Q1	2.3.3.21
Q8F445	2.3.3.13
Q8F4I0	2.3.1.31
Q8F8T4	2.3.3.13
Q8FBQ3	2.3.1.210
Q8FDQ2	5.3.1.13
Q8FI04	2.7.1.148
Q8FJY4	2.3.1.269
Q8FYS0	5.1.1.8
Q8G2I3	4.2.1.77
Q8G6Z9	3.4.13.19
Q8GAK6	1.1.1.179
Q8GBB2	2.1.1.220
Q8GBW6	2.1.3.1
Q8GCH2	2.4.1.264
Q8GGD4	3.5.1.133
Q8GHB2	2.5.1.111
Q8GIX7	1.1.1.1
Q8GJ27	1.21.99.5
Q8GME2	1.5.1.37
Q8GMG6	1.14.14.15
Q8GMH2	1.3.8.16
Q8GNT2	1.13.11.50
Q8GR64	1.1.9.1
Q8GRC8	4.1.3.41
Q8KBK9	2.1.1.332
Q8KCU0	2.1.1.331
Q8KDM7	2.8.5.2
Q8KES3	1.1.1.325
Q8KGE0	2.1.1.333
Q8KHS0	1.4.3.23
Q8KHZ8	1.14.19.9
Q8KLK5	2.3.1.246
Q8KLK7	1.13.11.80
Q8KLM3	2.8.2.36
Q8KN33	1.8.5.7
Q8KQK1	3.1.1.113
Q8KQL2	1.1.1.301
Q8KUU5	2.8.1.7
Q8KY50	2.7.11.1
Q8KZ94	2.1.1.164
Q8L172	1.21.99.5
Q8L3C7	1.4.3.11
Q8NL92	1.13.11.37
Q8NLE6	5.5.1.4
Q8NM65	2.7.4.1
Q8NN33	1.1.1.37
Q8NNK5	7.1.1.8
Q8NNK8	2.4.1.346
Q8NP73	5.1.1.7
Q8NQ98	4.2.1.3
Q8NQE1	6.3.1.19
Q8NR92	1.13.11.37
Q8NR94	1.14.13.219
Q8NRY8	1.1.5.12
Q8NS80	3.1.3.15
Q8NTR2	2.6.1.1
Q8P3K2	4.2.1.68
Q8P6V8	2.3.1.46
Q8P833	5.1.1.8
Q8P8J2	2.1.3.9
Q8P8L2	2.3.1.46
Q8P9V9	1.11.1.24
Q8PDQ6	1.14.13.113
Q8PDW6	6.1.3.1
Q8PDW8	4.1.1.114
Q8PDX2	2.3.3.20
Q8PTX6	3.6.1.76
Q8PU58	1.5.98.3
Q8PU59	1.5.98.3
Q8PU60	1.5.98.3
Q8PU61	1.5.98.3
Q8PV94	3.1.26.5
Q8PVV3	1.5.99.15
Q8PVW3	1.8.98.1
Q8PVW4	1.8.98.1
Q8PWY3	6.3.2.59
Q8PY99	6.3.1.2
Q8PYC8	2.3.1.264
Q8PYZ8	7.2.3.1
Q8R5Q4	2.6.1.38
Q8RB32	3.1.4.46
Q8RDT4	4.4.1.28
Q8RHX1	4.3.1.14
Q8RHX2	2.3.1.247
Q8RHX3	1.4.1.11
Q8RHX4	5.4.3.2
Q8RHX7	5.4.3.3
Q8RHX8	5.4.3.3
Q8RIS8	2.7.1.188
Q8RK01	7.4.2.8
Q8RKI5	2.7.8.12
Q8RKJ1	2.7.8.46
Q8RKJ2	2.7.8.47
Q8RMD1	5.1.3.35
Q8RMD4	2.7.1.187
Q8RSQ2	3.5.2.1
Q8TH08	2.4.2.48
Q8THG6	2.1.1.379
Q8TJK1	2.1.1.137
Q8TJZ5	4.99.1.11
Q8TJZ6	6.4.1.9
Q8TJZ8	6.3.3.7
Q8TJZ9	6.3.3.7
Q8TK00	6.3.5.12
Q8TKU6	4.1.1.79
Q8TLB0	1.8.7.3
Q8TLB1	1.8.7.3
Q8TLB2	1.8.7.3
Q8TME4	2.3.1.31
Q8TMG0	2.1.1.100
Q8TPT4	2.8.1.16
Q8TQQ6	1.3.7.11
Q8TUC0	6.3.2.59
Q8TXY4	1.5.98.2
Q8TZE8	3.5.1.1
Q8TZH9	3.1.3.11
Q8TZL3	2.5.1.72
Q8TZY8	6.2.1.13
Q8U0N7	6.5.1.5
Q8U0Z6	1.12.7.2
Q8U0Z7	1.12.7.2
Q8U0Z8	1.12.7.2
Q8U1K9	1.18.1.4
Q8U1L4	1.16.3.1
Q8U1R6	5.4.99.25
Q8U1Y4	3.4.19.15
Q8U248	2.1.1.256
Q8U259	1.1.1.103
Q8U2A9	2.7.6.3
Q8U2I1	2.4.2.1
Q8U308	3.5.99.10
Q8U3D6	6.2.1.13
Q8U3K2	1.2.7.6
Q8U4D2	2.4.99.21
Q8U4M3	2.4.1.83
Q8U4Q3	3.1.4.58
Q8UG81	2.3.2.29
Q8UH67	1.8.4.10
Q8VJU4	4.1.3.1
Q8VPD4	1.4.3.2
Q8VQ15	1.15.1.1
Q8VQF6	1.14.14.133
Q8VSC3	2.3.2.27
Q8VUS5	3.5.1.130
Q8X5X6	2.8.3.8
Q8X7P7	5.1.3.26
Q8XAS4	4.98.1.1
Q8XIQ9	3.6.1.1
Q8XKU1	5.3.1.1
Q8XP19	3.2.1.31
Q8Y565	4.99.1.9
Q8Y5F1	1.3.98.5
Q8Y6C8	2.5.1.n9
Q8Y914	2.7.7.2
Q8YB10	2.7.1.217
Q8YF53	3.2.2.6
Q8YFD6	5.1.1.8
Q8YLG0	3.1.4.17
Q8YMK0	2.4.1.336
Q8YT18	4.2.1.1
Q8YYI3	4.2.1.1
Q8Z0C8	1.2.3.5
Q8Z3G5	3.1.3.45
Q8Z989	3.1.3.82
Q8ZJV7	2.4.2.1
Q8ZJV8	4.1.2.4
Q8ZJW4	2.3.1.266
Q8ZKE6	2.3.1.280
Q8ZKQ4	7.6.2.13
Q8ZKQ6	2.7.1.189
Q8ZKR2	2.7.1.223
Q8ZKT7	5.3.1.31
Q8ZKU8	2.7.11.1
Q8ZNC4	4.1.1.116
Q8ZNF3	2.6.1.87
Q8ZNF9	4.2.1.90
Q8ZNR3	2.3.2.26
Q8ZNW0	2.7.1.40
Q8ZPX9	2.7.7.47
Q8ZR06	2.3.1.251
Q8ZR88	2.9.1.3
Q8ZRS5	2.7.1.219
Q8ZRV2	7.6.2.15
Q8ZU79	3.1.3.5
Q8ZWI8	7.1.3.1
Q8ZXK7	4.1.2.4
Q8ZY09	6.5.1.8
Q8ZYS2	3.2.2.27
Q927X3	4.2.1.113
Q92AT0	2.4.1.333
Q92DF6	2.4.1.339
Q92ET9	2.7.1.121
Q92EU2	2.7.1.121
Q92EU3	2.7.1.121
Q92EU4	5.3.1.1
Q92EU5	5.3.1.6
Q92EU6	1.1.1.6
Q92LF6	1.14.11.56
Q92R44	1.20.4.1
Q92SJ1	2.3.2.30
Q92WR9	4.2.1.77
Q936X3	3.5.1.131
Q937L4	1.1.1.245
Q937N8	4.2.1.3
Q937P0	4.1.3.30
Q939U1	2.8.5.2
Q939X3	2.3.1.246
Q93AL8	4.2.1.175
Q93AL9	4.2.1.175
Q93AM1	2.8.3.17
Q93HS4	1.14.19.61
Q93HX6	4.3.1.9
Q93KD4	7.3.2.6
Q93L51	1.14.13.231
Q93LJ4	5.4.99.5
Q93MI2	1.14.13.181
Q93NG1	3.5.1.111
Q93NH4	1.5.3.5
Q93P60	2.4.1.337
Q93PS7	3.1.1.57
Q93Q23	2.4.1.129
Q93QX0	4.1.1.12
Q93QX2	2.5.1.149
Q93R93	2.6.1.118
Q93RV9	1.14.11.55
Q93UV0	2.3.1.50
Q93UV4	1.1.1.256
Q96XN9	2.7.1.45
Q96XT2	1.2.7.11
Q96XT4	1.2.7.11
Q96Y66	1.2.7.11
Q96Y68	1.2.7.11
Q96YC2	5.1.3.42
Q96YD0	3.2.2.27
Q96YR7	3.6.4.12
Q96YZ3	2.7.1.165
Q971S5	2.3.3.14
Q972D2	1.4.3.16
Q977U7	1.1.1.47
Q978S7	3.2.1.28
Q97BM8	4.1.1.110
Q97CP1	4.2.99.18
Q97DU2	3.1.3.23
Q97GC0	1.6.3.4
Q97K92	1.6.3.4
Q97LU2	1.3.1.44
Q97MK4	5.1.1.20
Q97ML3	2.7.1.59
Q97TX9	3.1.12.1
Q97U28	4.1.2.55
Q97U29	2.7.1.178
Q97U30	1.2.1.90
Q97U63	2.8.1.8
Q97U96	4.2.1.5
Q97UA0	4.2.1.141
Q97UA1	1.2.1.26
Q97W92	2.5.1.82
Q97WF1	3.2.2.27
Q97WG8	3.6.4.12
Q97WI2	3.1.1.96
Q97YM2	1.1.1.427
Q97YU3	3.13.1.5
Q980A5	3.6.5.3
Q980N1	2.5.1.41
Q980R1	2.7.7.6
Q980S6	6.3.4.2
Q983E4	2.3.2.29
Q988B8	2.6.1.30
Q988C8	1.2.1.100
Q988C9	1.1.99.42
Q988D0	4.1.1.51
Q989T9	1.14.11.56
Q98FW0	5.1.3.31
Q99PX1	3.5.1.105
Q99SD6	1.2.1.3
Q99SZ7	2.7.13.3
Q99Y92	3.2.1.96
Q9A196	6.3.2.7
Q9A1B7	5.1.1.3
Q9A1K3	1.17.99.6
Q9A3Q9	2.6.1.18
Q9A6Q5	4.1.99.17
Q9A716	3.6.1.54
Q9A9H3	2.6.1.102
Q9A9Z0	1.1.1.175
Q9A9Z1	3.1.1.110
Q9AAS1	2.3.1.31
Q9AE87	1.14.19.77
Q9AF95	1.1.2.9
Q9AGA6	3.2.1.122
Q9AGJ6	4.1.1.32
Q9AGP8	1.5.3.10
Q9AGW3	1.1.5.11
Q9AIK2	1.4.1.1
Q9AIX6	1.14.13.208
Q9AIX7	1.14.13.208
Q9AJU0	2.1.1.307
Q9AJU1	2.1.1.306
Q9AJU2	2.1.1.305
Q9AK25	3.5.4.4
Q9ALA2	7.1.1.1
Q9ALJ4	3.2.1.22
Q9ALN5	1.1.1.384
Q9ALN6	4.2.1.159
Q9ALN8	4.2.1.164
Q9ALN9	2.6.1.110
Q9ALP0	2.1.1.324
Q9AQS0	4.2.2.12
Q9CHW3	3.1.3.3
Q9CIF0	2.7.1.205
Q9EX73	3.1.1.83
Q9EY50	2.3.2.10
Q9EY88	6.2.1.34
Q9EYU0	3.5.4.45
Q9F0Q6	2.7.8.7
Q9F2F9	2.4.1.331
Q9F3C7	1.8.3.7
Q9F464	3.5.1.87
Q9F466	5.1.99.5
Q9F7E0	1.1.1.245
Q9F837	2.6.1.106
Q9F8A8	1.2.7.4
Q9F930	3.2.1.41
Q9FBG4	2.1.1.224
Q9FCA6	1.14.19.69
Q9FCA7	2.3.1.233
Q9FCP2	2.5.1.98
Q9HH07	6.5.1.6
Q9HH09	6.3.1.2
Q9HHC4	6.5.1.6
Q9HIN1	2.7.1.185
Q9HJH3	2.5.1.41
Q9HJS1	4.1.1.110
Q9HK01	1.2.1.89
Q9HK44	2.7.1.186
Q9HK58	1.1.1.377
Q9HKS9	1.3.1.101
Q9HKT1	6.3.1.20
Q9HKT2	6.3.1.20
Q9HL57	2.3.1.57
Q9HLE2	3.2.1.28
Q9HLV3	2.7.1.45
Q9HT84	2.7.7.65
Q9HTC0	2.4.1.348
Q9HTQ2	5.1.1.1
Q9HTR2	3.1.3.75
Q9HU05	5.4.99.5
Q9HU15	2.3.1.180
Q9HU21	5.1.3.13
Q9HU77	3.5.3.13
Q9HU92	3.5.1.68
Q9HUK9	2.8.1.1
Q9HVD1	3.1.1.77
Q9HVM5	3.4.23.36
Q9HW01	2.4.1.227
Q9HWA7	2.7.13.3
Q9HWC1	2.7.1.33
Q9HWG9	1.14.13.218
Q9HWH2	2.1.1.327
Q9HWT6	1.5.1.37
Q9HWT7	1.14.14.9
Q9HX08	2.5.1.129
Q9HX69	3.1.4.52
Q9HXC7	3.1.3.48
Q9HXE3	1.4.99.6
Q9HXE4	1.4.1.25
Q9HXE9	2.7.8.24
Q9HXY7	4.2.1.59
Q9HY69	2.4.1.33
Q9HYF1	2.7.4.33
Q9HYV7	2.3.1.207
Q9HZ17	1.7.1.17
Q9HZ47	2.7.13.3
Q9HZ59	3.5.3.8
Q9HZE0	1.4.1.2
Q9I0F2	3.1.1.108
Q9I0N5	1.13.11.91
Q9I0R2	1.14.15.3
Q9I0R8	3.1.4.52
Q9I1H0	6.2.1.67
Q9I1H3	6.2.1.68
Q9I1L4	1.14.20.9
Q9I1L5	4.1.99.24
Q9I1S2	1.4.99.5
Q9I234	3.5.1.9
Q9I2E2	1.7.1.17
Q9I2N0	3.1.4.1
Q9I2Q1	3.4.19.11
Q9I2S7	4.1.1.18
Q9I2V0	3.6.1.54
Q9I2Y2	3.1.3.3
Q9I3S3	3.5.3.7
Q9I3T5	3.5.1.62
Q9I476	5.1.1.8
Q9I485	4.2.1.171
Q9I489	4.2.1.77
Q9I492	1.5.1.21
Q9I4E3	3.5.3.18
Q9I4G8	1.13.11.33
Q9I4L5	2.7.7.65
Q9I4V0	1.6.5.9
Q9I4X1	2.3.1.230
Q9I5I6	1.1.1.387
Q9I5I9	3.1.6.21
Q9I5R6	1.14.99.60
Q9I6F6	3.1.3.15
Q9I6H0	3.5.1.62
Q9I6J2	2.6.1.113
Q9I6K2	3.5.3.17
Q9I6N5	4.1.1.93
Q9I6V7	2.1.1.80
Q9I6Z1	2.7.4.34
Q9I733	3.1.21.1
Q9I739	3.2.2.5
Q9I788	2.4.2.31
Q9JN69	1.11.1.23
Q9JZG1	2.3.3.13
Q9K3J3	1.1.1.37
Q9K499	4.2.3.37
Q9K4B1	3.1.3.15
Q9K4M4	2.8.5.2
Q9K4V3	1.15.1.1
Q9K4Y9	2.1.3.3
Q9K864	1.21.98.1
Q9K9G8	3.5.99.2
Q9KFV3	3.5.4.30
Q9KG76	3.2.1.39
Q9KHI5	2.7.13.3
Q9KID9	3.3.2.13
Q9KJ21	2.1.1.157
Q9KJ22	2.1.1.156
Q9KJE7	4.2.1.180
Q9KJF1	1.1.1.429
Q9KJX5	3.1.3.1
Q9KL03	2.3.1.57
Q9KL41	1.14.99.58
Q9KPM2	3.1.3.3
Q9KQG2	1.2.1.11
Q9KRL3	1.5.1.43
Q9KSE5	5.1.1.10
Q9KTJ4	3.1.3.82
Q9KVG8	3.1.1.32
Q9KVK6	3.1.4.52
Q9KWN1	1.1.1.276
Q9KWU4	6.4.1.1
Q9KWZ1	2.5.1.72
Q9KX73	1.1.3.41
Q9KZF5	1.14.19.69
Q9L1K2	2.4.99.16
Q9L3Q5	1.11.1.24
Q9L4U6	2.4.1.326
Q9L4Y1	1.14.13.200
Q9L555	2.4.1.327
Q9L5A4	3.4.21.121
Q9L6L9	1.5.1.41
Q9L7P2	4.2.2.3
Q9L7R9	4.1.2.57
Q9L888	5.1.1.1
Q9L9D7	3.1.1.84
Q9L9F1	2.5.1.111
Q9L9F2	2.1.1.285
Q9L9F5	2.4.1.302
Q9L9I7	4.1.99.17
Q9LAE5	4.3.2.1
Q9LAI0	3.1.21.4
Q9LAI1	3.1.21.4
Q9LBV3	1.1.1.413
Q9LCB4	2.3.3.18
Q9LCV9	2.5.1.66
Q9P9K9	6.5.1.1
Q9PMN3	5.3.1.28
Q9R381	2.3.1.82
Q9R4A1	3.2.2.9
Q9R5V5	2.4.2.6
Q9RA51	2.3.1.31
Q9RAH6	2.5.1.38
Q9RBG4	1.14.12.14
Q9RBG5	1.14.12.14
Q9RBP4	4.4.1.34
Q9RBP5	1.1.1.398
Q9RBU1	2.1.4.3
Q9RBW7	2.3.1.82
Q9RBY6	1.14.20.15
Q9RC92	3.2.1.179
Q9RCG0	1.1.99.37
Q9RCI2	2.8.4.3
Q9RCT1	1.1.1.267
Q9RDT3	2.7.13.3
Q9RFR0	2.4.1.269
Q9RGG4	2.7.1.206
Q9RKF1	1.2.1.92
Q9RKF7	5.5.1.25
Q9RN59	5.5.1.26
Q9RR31	4.2.1.159
Q9RR32	1.1.1.384
Q9RUB5	2.2.1.7
Q9RUP5	5.3.1.1
Q9RW45	3.5.4.40
Q9RW55	1.5.5.2
Q9RX75	3.1.21.10
Q9RYA6	4.2.1.113
Q9S1E5	1.7.2.2
Q9S1F9	1.4.1.4
Q9S281	3.1.3.3
Q9S2H6	2.7.1.193
Q9S3U6	1.13.11.4
Q9S3U8	1.14.13.217
Q9S3U9	1.14.13.224
Q9S3V0	1.11.1.6
Q9S3V1	1.4.3.23
Q9S400	2.5.1.19
Q9S5G5	3.1.3.15
Q9S5X0	7.2.3.1
Q9S605	3.6.1.11
Q9UXR8	1.2.1.70
Q9UXT7	2.3.1.234
Q9UYB9	2.7.11.1
Q9V0Q0	2.1.1.228
Q9V2G1	2.1.1.228
Q9V2R8	3.1.1.96
Q9V2Z4	2.3.1.169
Q9V2Z6	2.7.1.147
Q9WWU5	1.14.11.77
Q9WXE6	1.13.11.66
Q9WXM1	5.1.1.20
Q9WXR9	5.3.1.12
Q9WXS3	1.1.1.57
Q9WY43	2.7.7.85
Q9WYH1	3.1.1.1
Q9WYJ4	2.4.1.361
Q9WYP5	1.1.1.18
Q9WYQ4	1.1.1.6
Q9WYS1	5.1.2.7
Q9WYT0	2.1.1.148
Q9WYV8	2.1.1.297
Q9WYW0	2.3.1.286
Q9WYY1	3.2.2.27
Q9WZC1	2.8.4.3
Q9WZC2	2.5.1.16
Q9WZC3	4.1.1.50
Q9WZJ0	1.17.99.6
Q9WZP7	2.5.1.3
Q9WZW0	5.4.99.25
Q9WZY3	2.3.1.31
Q9X0C6	4.3.2.10
Q9X0I0	4.3.2.2
Q9X1A5	5.3.1.9
Q9X1H5	4.2.1.70
Q9X1I0	2.7.1.2
Q9X1L0	5.1.1.7
Q9X1P5	4.1.2.4
Q9X1X6	1.4.1.21
Q9X1X7	2.5.1.72
Q9X2A4	2.7.2.8
Q9X2H6	2.8.4.4
Q9X3P3	5.1.1.1
Q9X404	1.14.13.111
Q9X405	1.14.13.111
Q9X406	1.14.13.111
Q9X519	5.4.2.12
Q9X5C9	1.1.1.24
Q9X5F2	1.1.1.267
Q9X5T6	2.1.1.316
Q9X6W9	1.15.1.1
Q9X721	3.4.24.3
Q9X758	1.1.98.7
Q9X7M4	3.5.3.18
Q9X913	7.1.3.1
Q9XA14	3.4.22.70
Q9XA15	3.4.22.70
Q9XB18	1.16.3.1
Q9XB60	2.3.1.226
Q9XBQ3	3.2.1.55
Q9XBQ8	5.4.3.2
Q9XC60	1.1.1.367
Q9XC67	2.4.1.318
Q9XDM4	2.7.1.177
Q9XDN1	1.2.1.87
Q9XDN5	2.3.1.222
Q9Y9L0	1.11.1.24
Q9YA11	1.2.7.11
Q9YA13	1.2.7.11
Q9YA47	2.7.1.2
Q9YBS3	2.7.8.39
Q9YBX7	1.2.7.11
Q9YBX8	1.2.7.11
Q9YD18	6.5.1.7
Q9YDP0	3.2.2.29
Q9YDP3	2.1.1.37
Q9YEA1	1.1.1.299
Q9YEF5	2.5.1.41
Q9YER2	1.1.1.261
Q9Z4J7	1.1.2.8
Q9Z4P4	1.7.2.2
Q9Z4P6	1.21.4.1
Q9Z4Q7	1.21.4.1
Q9Z520	5.3.1.1
Q9ZA32	4.2.1.159
Q9ZA33	1.1.1.384
Q9ZAE9	4.2.3.152
Q9ZAG3	3.3.2.8
Q9ZAU3	1.14.13.181
Q9ZB26	5.3.1.34
Q9ZBA9	3.4.11.19
Q9ZBU1	1.1.3.41
Q9ZET3	1.14.13.69
Q9ZET6	1.14.13.69
Q9ZEU2	2.4.1.4
Q9ZFH0	5.1.3.37
Q9ZFV4	2.5.1.154
Q9ZFV5	2.7.2.1
Q9ZG90	3.2.1.103
Q9ZGH1	4.3.1.30
Q9ZGH6	2.1.1.234
Q9ZGH7	2.4.1.277
Q9ZHC5	1.16.3.1
Q9ZHC7	7.2.2.15
Q9ZHI0	6.5.1.2
Q9ZHQ1	1.14.15.34
Q9ZI34	4.1.1.39
Q9ZLT0	5.1.1.3
Q9ZNN8	1.1.1.304
R4LHX8	2.5.1.63
R9T6W8	2.3.1.31
R9UAM1	1.1.1.201
R9UTQ8	1.14.11.57
S0F332	3.9.1.2
S2DJ52	1.1.99.2
S2KHP1	2.3.1.46
S2L5R8	2.3.1.46
S4S3E3	1.5.1.36
S5FMM4	1.4.3.19
S5FT07	3.13.1.5
S5FU55	3.13.1.5
S5RR11	1.14.15.38
S5SC42	1.14.15.38
T1WGN1	3.2.1.96
T2G6Z9	1.8.99.2
T2KM13	5.1.3.32
T2KN75	3.2.1.31
T2KNB2	3.2.1.40
U2ZU49	2.1.1.137
V5TD18	1.14.20.11
V5TES5	4.1.99.25
V5TF65	4.1.99.25
V5XKC3	1.16.1.7
V5YW53	1.5.1.1
V5YXI5	4.2.1.77
V9TXH2	3.2.1.8
W6RJ11	3.5.2.15
W6VBF4	2.1.1.334
W8CV45	1.4.1.19
X5CY81	1.18.1.3
